0	9
1	1
2	2
3	2
4	2
5	1
6	13
7	0
8	1
9	3
10	16
11	6
12	12
13	9
14	0
15	7
16	1
17	2
18	23
19	2
20	10
21	3
22	9
23	40
24	33
25	40
26	0
27	5
28	2
29	1
30	10
31	13
32	13
33	11
34	13
35	6
36	1
37	2
38	3
39	3
40	4
41	4
42	5
43	1
44	2
45	1
46	1
47	7
48	7
49	2
50	0
51	2
52	1
53	18
54	0
55	0
56	2
57	9
58	5
59	7
60	0
61	1
62	1
63	22
64	112
65	112
66	4
67	3
68	12
69	6
70	7
71	1
72	2
73	17
74	35
75	24
76	37
77	16
78	24
79	1
80	9
81	5
82	4
83	9
84	13
85	24
86	26
87	14
88	29
89	17
90	1
91	9
92	6
93	2
94	21
95	30
96	21
97	18
98	18
99	21
100	2
101	3
102	0
103	1
104	3
105	3
106	2
107	2
108	7
109	14
110	14
111	9
112	4
113	2
114	0
115	1
116	12
117	13
118	1
119	5
120	14
121	6
122	6
123	8
124	8
125	6
126	10
127	9
128	10
129	11
130	16
131	4
132	4
133	18
134	28
135	4
136	2
137	1
138	0
139	6
140	20
141	20
142	0
143	0
144	12
145	10
146	24
147	26
148	26
149	26
150	25
151	25
152	23
153	25
154	25
155	4
156	1
157	2
158	2
159	8
160	2
161	4
162	8
163	1
164	5
165	0
166	2
167	8
168	11
169	11
170	2
171	1
172	8
173	0
174	0
175	24
176	6
177	25
178	4
179	30
180	25
181	16
182	21
183	28
184	24
185	24
186	2
187	2
188	0
189	10
190	4
191	0
192	3
193	8
194	6
195	5
196	18
197	4
198	11
199	11
200	1
201	1
202	12
203	11
204	9
205	1
206	5
207	4
208	0
209	6
210	6
211	0
212	9
213	6
214	11
215	4
216	11
217	11
218	11
219	0
220	11
221	11
222	3
223	6
224	1
225	1
226	1
227	9
228	1
229	1
230	7
231	3
232	9
233	9
234	9
235	3
236	5
237	2
238	2
239	22
240	0
241	2
242	3
243	2
244	1
245	7
246	8
247	8
248	8
249	5
250	30
251	1
252	4
253	5
254	1
255	1
256	112
257	112
258	112
259	112
260	112
261	14
262	10
263	10
264	112
265	106
266	12
267	112
268	112
269	112
270	104
271	104
272	104
273	108
274	9
275	17
276	17
277	16
278	16
279	3
280	5
281	3
282	4
283	1
284	0
285	2
286	6
287	1
288	9
289	1
290	0
291	9
292	17
293	14
294	16
295	26
296	1
297	20
298	0
299	5
300	18
301	20
302	14
303	19
304	4
305	4
306	10
307	10
308	1
309	1
310	7
311	11
312	6
313	15
314	15
315	4
316	2
317	1
318	1
319	6
320	7
321	18
322	5
323	6
324	54
325	21
326	31
327	54
328	18
329	0
330	2
331	2
332	7
333	6
334	2
335	1
336	0
337	4
338	7
339	14
340	5
341	5
342	2
343	2
344	14
345	13
346	5
347	5
348	7
349	2
350	0
351	3
352	5
353	0
354	2
355	2
356	6
357	2
358	3
359	6
360	21
361	22
362	15
363	15
364	0
365	22
366	22
367	5
368	0
369	112
370	0
371	21
372	21
373	19
374	21
375	0
376	0
377	5
378	2
379	23
380	22
381	28
382	2
383	2
384	1
385	19
386	2
387	8
388	10
389	10
390	10
391	4
392	4
393	3
394	0
395	3
396	11
397	10
398	7
399	5
400	2
401	10
402	9
403	12
404	17
405	17
406	17
407	0
408	1
409	2
410	2
411	11
412	12
413	12
414	0
415	19
416	19
417	19
418	19
419	19
420	19
421	19
422	0
423	1
424	1
425	1
426	1
427	1
428	14
429	1
430	10
431	19
432	19
433	2
434	28
435	29
436	1
437	9
438	9
439	9
440	9
441	2
442	5
443	7
444	4
445	1
446	7
447	1
448	1
449	2
450	28
451	12
452	2
453	53
454	7
455	2
456	24
457	23
458	24
459	25
460	23
461	24
462	25
463	25
464	31
465	19
466	0
467	1
468	1
469	7
470	53
471	53
472	50
473	53
474	53
475	53
476	51
477	2
478	0
479	3
480	0
481	2
482	2
483	4
484	28
485	30
486	30
487	30
488	29
489	11
490	1
491	7
492	7
493	1
494	0
495	0
496	8
497	7
498	1
499	0
500	5
501	6
502	18
503	18
504	0
505	18
506	18
507	2
508	7
509	1
510	1
511	7
512	12
513	10
514	20
515	22
516	15
517	19
518	15
519	1
520	2
521	6
522	0
523	2
524	3
525	3
526	7
527	7
528	7
529	14
530	14
531	1
532	27
533	13
534	13
535	20
536	19
537	20
538	17
539	1
540	0
541	8
542	8
543	25
544	32
545	30
546	3
547	36
548	3
549	39
550	29
551	36
552	36
553	36
554	36
555	36
556	36
557	25
558	1
559	1
560	1
561	7
562	1
563	18
564	21
565	18
566	4
567	0
568	4
569	7
570	0
571	1
572	15
573	0
574	2
575	8
576	8
577	13
578	0
579	2
580	2
581	2
582	1
583	4
584	2
585	1
586	11
587	34
588	40
589	24
590	36
591	17
592	17
593	2
594	13
595	1
596	15
597	5
598	18
599	0
600	2
601	8
602	10
603	8
604	1
605	2
606	2
607	2
608	20
609	33
610	2
611	0
612	1
613	10
614	16
615	18
616	4
617	2
618	14
619	2
620	6
621	1
622	15
623	0
624	2
625	12
626	2
627	1
628	6
629	1
630	2
631	8
632	1
633	17
634	6
635	3
636	2
637	1
638	6
639	5
640	5
641	4
642	3
643	0
644	17
645	5
646	26
647	2
648	2
649	5
650	1
651	1
652	8
653	1
654	2
655	9
656	8
657	16
658	0
659	4
660	4
661	6
662	1
663	25
664	28
665	26
666	2
667	6
668	11
669	10
670	5
671	5
672	3
673	15
674	9
675	9
676	29
677	2
678	6
679	2
680	7
681	1
682	7
683	14
684	14
685	15
686	19
687	19
688	6
689	8
690	10
691	10
692	10
693	3
694	0
695	1
696	3
697	5
698	15
699	6
700	2
701	112
702	112
703	112
704	112
705	104
706	91
707	104
708	106
709	112
710	14
711	112
712	112
713	112
714	112
715	112
716	112
717	112
718	84
719	82
720	60
721	112
722	112
723	112
724	112
725	112
726	112
727	112
728	112
729	112
730	112
731	112
732	112
733	112
734	112
735	112
736	112
737	112
738	112
739	112
740	112
741	112
742	84
743	61
744	112
745	112
746	112
747	112
748	112
749	112
750	93
751	112
752	112
753	89
754	112
755	112
756	112
757	112
758	112
759	112
760	112
761	112
762	112
763	112
764	112
765	112
766	112
767	112
768	1
769	0
770	40
771	23
772	40
773	40
774	19
775	18
776	62
777	62
778	66
779	71
780	18
781	71
782	75
783	71
784	66
785	66
786	2
787	13
788	8
789	9
790	4
791	1
792	2
793	0
794	25
795	1
796	7
797	2
798	25
799	27
800	27
801	2
802	4
803	7
804	4
805	7
806	1
807	2
808	0
809	7
810	4
811	17
812	14
813	6
814	1
815	27
816	21
817	3
818	9
819	6
820	6
821	6
822	13
823	2
824	5
825	5
826	8
827	1
828	2
829	15
830	7
831	30
832	29
833	28
834	18
835	21
836	21
837	0
838	2
839	0
840	0
841	4
842	4
843	2
844	1
845	16
846	16
847	16
848	20
849	20
850	1
851	10
852	20
853	4
854	16
855	0
856	1
857	9
858	7
859	2
860	29
861	29
862	29
863	29
864	29
865	10
866	9
867	11
868	6
869	1
870	2
871	1
872	5
873	6
874	1
875	15
876	22
877	1
878	4
879	22
880	22
881	22
882	34
883	40
884	38
885	11
886	0
887	0
888	1
889	2
890	4
891	0
892	7
893	7
894	9
895	1
896	5
897	8
898	18
899	9
900	15
901	6
902	13
903	7
904	0
905	1
906	8
907	7
908	2
909	3
910	4
911	5
912	2
913	3
914	5
915	9
916	24
917	27
918	24
919	14
920	6
921	7
922	8
923	10
924	10
925	11
926	12
927	7
928	7
929	7
930	2
931	15
932	6
933	15
934	0
935	1
936	7
937	5
938	3
939	8
940	1
941	1
942	26
943	8
944	8
945	0
946	15
947	17
948	15
949	22
950	22
951	1
952	7
953	19
954	12
955	12
956	3
957	3
958	4
959	1
960	1
961	0
962	0
963	1
964	5
965	4
966	8
967	0
968	8
969	5
970	8
971	7
972	9
973	1
974	1
975	6
976	1
977	0
978	1
979	12
980	0
981	53
982	16
983	51
984	22
985	0
986	1
987	1
988	12
989	5
990	2
991	0
992	0
993	14
994	5
995	7
996	7
997	12
998	2
999	14
1000	0
1001	5
1002	9
1003	14
1004	1
1005	10
1006	14
1007	4
1008	4
1009	0
1010	11
1011	3
1012	2
1013	6
1014	1
1015	0
1016	5
1017	2
1018	6
1019	2
1020	3
1021	4
1022	4
1023	2
1024	20
1025	1
1026	3
1027	8
1028	0
1029	0
1030	10
1031	1
1032	0
1033	0
1034	14
1035	2
1036	112
1037	112
1038	30
1039	112
1040	28
1041	112
1042	112
1043	112
1044	112
1045	103
1046	108
1047	30
1048	112
1049	112
1050	1
1051	1
1052	2
1053	4
1054	1
1055	6
1056	7
1057	3
1058	1
1059	13
1060	17
1061	5
1062	1
1063	1
1064	12
1065	2
1066	0
1067	1
1068	2
1069	28
1070	31
1071	2
1072	2
1073	27
1074	4
1075	16
1076	21
1077	28
1078	28
1079	6
1080	5
1081	7
1082	14
1083	14
1084	1
1085	8
1086	2
1087	9
1088	10
1089	10
1090	2
1091	1
1092	2
1093	31
1094	31
1095	3
1096	1
1097	2
1098	0
1099	0
1100	11
1101	2
1102	10
1103	1
1104	40
1105	40
1106	40
1107	37
1108	40
1109	37
1110	36
1111	40
1112	40
1113	40
1114	1
1115	40
1116	40
1117	39
1118	40
1119	37
1120	4
1121	1
1122	8
1123	1
1124	2
1125	0
1126	5
1127	19
1128	20
1129	8
1130	6
1131	8
1132	14
1133	22
1134	1
1135	0
1136	0
1137	2
1138	2
1139	1
1140	16
1141	9
1142	4
1143	14
1144	0
1145	6
1146	16
1147	17
1148	17
1149	17
1150	1
1151	1
1152	8
1153	14
1154	17
1155	2
1156	1
1157	1
1158	9
1159	5
1160	5
1161	0
1162	12
1163	22
1164	20
1165	26
1166	7
1167	28
1168	26
1169	8
1170	7
1171	5
1172	18
1173	2
1174	15
1175	0
1176	6
1177	112
1178	60
1179	112
1180	6
1181	20
1182	0
1183	1
1184	9
1185	10
1186	11
1187	1
1188	4
1189	1
1190	2
1191	6
1192	6
1193	14
1194	14
1195	14
1196	0
1197	5
1198	6
1199	6
1200	11
1201	16
1202	2
1203	1
1204	2
1205	4
1206	1
1207	2
1208	3
1209	1
1210	1
1211	4
1212	4
1213	4
1214	15
1215	16
1216	4
1217	14
1218	40
1219	40
1220	40
1221	40
1222	40
1223	40
1224	40
1225	40
1226	40
1227	11
1228	4
1229	0
1230	1
1231	2
1232	2
1233	1
1234	4
1235	2
1236	4
1237	2
1238	6
1239	0
1240	6
1241	2
1242	2
1243	1
1244	0
1245	0
1246	1
1247	0
1248	2
1249	2
1250	2
1251	2
1252	53
1253	49
1254	53
1255	53
1256	37
1257	53
1258	49
1259	33
1260	53
1261	4
1262	4
1263	24
1264	21
1265	29
1266	26
1267	29
1268	24
1269	30
1270	2
1271	3
1272	0
1273	20
1274	2
1275	20
1276	1
1277	9
1278	2
1279	1
1280	2
1281	8
1282	2
1283	3
1284	3
1285	3
1286	0
1287	0
1288	10
1289	8
1290	8
1291	1
1292	0
1293	7
1294	3
1295	4
1296	8
1297	8
1298	13
1299	11
1300	0
1301	19
1302	6
1303	6
1304	6
1305	14
1306	1
1307	1
1308	17
1309	17
1310	1
1311	2
1312	2
1313	6
1314	1
1315	5
1316	3
1317	6
1318	1
1319	7
1320	6
1321	0
1322	7
1323	6
1324	13
1325	0
1326	19
1327	5
1328	2
1329	9
1330	11
1331	1
1332	1
1333	4
1334	3
1335	0
1336	1
1337	0
1338	2
1339	0
1340	1
1341	10
1342	10
1343	0
1344	18
1345	15
1346	16
1347	0
1348	11
1349	2
1350	2
1351	0
1352	18
1353	18
1354	18
1355	16
1356	14
1357	17
1358	18
1359	16
1360	18
1361	18
1362	7
1363	1
1364	1
1365	1
1366	5
1367	4
1368	26
1369	1
1370	2
1371	15
1372	6
1373	6
1374	6
1375	5
1376	11
1377	11
1378	11
1379	11
1380	8
1381	7
1382	5
1383	5
1384	8
1385	1
1386	1
1387	4
1388	9
1389	4
1390	2
1391	11
1392	16
1393	12
1394	16
1395	16
1396	4
1397	5
1398	6
1399	8
1400	0
1401	22
1402	8
1403	3
1404	1
1405	5
1406	0
1407	2
1408	7
1409	2
1410	4
1411	6
1412	1
1413	2
1414	28
1415	28
1416	10
1417	10
1418	10
1419	3
1420	3
1421	5
1422	6
1423	1
1424	7
1425	1
1426	8
1427	7
1428	7
1429	6
1430	8
1431	7
1432	8
1433	7
1434	2
1435	8
1436	1
1437	1
1438	2
1439	2
1440	21
1441	21
1442	5
1443	26
1444	14
1445	2
1446	1
1447	0
1448	1
1449	4
1450	9
1451	19
1452	1
1453	1
1454	8
1455	8
1456	4
1457	4
1458	16
1459	20
1460	4
1461	2
1462	16
1463	22
1464	0
1465	4
1466	5
1467	12
1468	0
1469	8
1470	14
1471	1
1472	2
1473	1
1474	2
1475	1
1476	8
1477	0
1478	2
1479	7
1480	112
1481	7
1482	7
1483	112
1484	112
1485	11
1486	4
1487	14
1488	8
1489	8
1490	14
1491	17
1492	22
1493	5
1494	2
1495	8
1496	25
1497	25
1498	28
1499	28
1500	27
1501	28
1502	2
1503	6
1504	0
1505	2
1506	1
1507	3
1508	0
1509	1
1510	8
1511	14
1512	10
1513	20
1514	14
1515	11
1516	24
1517	4
1518	2
1519	3
1520	2
1521	3
1522	8
1523	6
1524	2
1525	2
1526	10
1527	0
1528	1
1529	14
1530	22
1531	0
1532	2
1533	10
1534	22
1535	31
1536	31
1537	22
1538	3
1539	31
1540	31
1541	31
1542	31
1543	31
1544	30
1545	31
1546	31
1547	16
1548	7
1549	10
1550	3
1551	31
1552	31
1553	31
1554	31
1555	24
1556	31
1557	31
1558	21
1559	31
1560	30
1561	31
1562	31
1563	28
1564	31
1565	27
1566	31
1567	31
1568	26
1569	30
1570	31
1571	31
1572	31
1573	20
1574	25
1575	29
1576	17
1577	31
1578	31
1579	31
1580	20
1581	27
1582	31
1583	31
1584	31
1585	31
1586	20
1587	0
1588	1
1589	7
1590	14
1591	3
1592	1
1593	26
1594	22
1595	18
1596	12
1597	15
1598	15
1599	19
1600	3
1601	2
1602	2
1603	16
1604	7
1605	7
1606	1
1607	18
1608	6
1609	8
1610	0
1611	3
1612	3
1613	1
1614	1
1615	9
1616	1
1617	3
1618	26
1619	1
1620	25
1621	7
1622	5
1623	4
1624	2
1625	10
1626	6
1627	10
1628	0
1629	12
1630	22
1631	2
1632	2
1633	7
1634	0
1635	2
1636	12
1637	7
1638	6
1639	0
1640	1
1641	20
1642	9
1643	10
1644	8
1645	1
1646	1
1647	0
1648	0
1649	17
1650	0
1651	9
1652	29
1653	5
1654	2
1655	1
1656	5
1657	15
1658	2
1659	18
1660	1
1661	1
1662	8
1663	0
1664	0
1665	5
1666	3
1667	4
1668	0
1669	1
1670	5
1671	4
1672	7
1673	7
1674	22
1675	6
1676	1
1677	7
1678	9
1679	2
1680	27
1681	29
1682	54
1683	30
1684	54
1685	29
1686	18
1687	2
1688	0
1689	1
1690	11
1691	1
1692	1
1693	1
1694	5
1695	3
1696	17
1697	17
1698	19
1699	0
1700	14
1701	13
1702	19
1703	10
1704	16
1705	1
1706	8
1707	8
1708	7
1709	3
1710	3
1711	6
1712	3
1713	3
1714	4
1715	1
1716	2
1717	6
1718	19
1719	26
1720	2
1721	29
1722	14
1723	29
1724	21
1725	10
1726	19
1727	0
1728	3
1729	1
1730	7
1731	12
1732	12
1733	12
1734	0
1735	5
1736	3
1737	0
1738	12
1739	3
1740	4
1741	0
1742	6
1743	0
1744	1
1745	24
1746	3
1747	28
1748	1
1749	11
1750	1
1751	0
1752	1
1753	6
1754	2
1755	3
1756	4
1757	13
1758	14
1759	2
1760	0
1761	11
1762	8
1763	5
1764	5
1765	5
1766	5
1767	12
1768	5
1769	1
1770	2
1771	3
1772	0
1773	0
1774	4
1775	4
1776	19
1777	1
1778	0
1779	0
1780	22
1781	1
1782	6
1783	1
1784	1
1785	6
1786	0
1787	0
1788	11
1789	1
1790	2
1791	12
1792	2
1793	101
1794	2
1795	101
1796	101
1797	101
1798	101
1799	101
1800	101
1801	101
1802	4
1803	101
1804	101
1805	101
1806	18
1807	101
1808	101
1809	101
1810	101
1811	101
1812	101
1813	101
1814	101
1815	101
1816	101
1817	101
1818	101
1819	101
1820	101
1821	101
1822	101
1823	101
1824	73
1825	101
1826	101
1827	2
1828	1
1829	1
1830	23
1831	31
1832	23
1833	36
1834	34
1835	18
1836	20
1837	23
1838	36
1839	7
1840	1
1841	0
1842	101
1843	101
1844	101
1845	101
1846	101
1847	101
1848	81
1849	86
1850	101
1851	101
1852	101
1853	101
1854	101
1855	101
1856	14
1857	0
1858	7
1859	4
1860	2
1861	2
1862	8
1863	54
1864	12
1865	13
1866	4
1867	2
1868	3
1869	4
1870	0
1871	53
1872	53
1873	50
1874	53
1875	53
1876	40
1877	53
1878	50
1879	53
1880	50
1881	53
1882	48
1883	51
1884	53
1885	51
1886	53
1887	53
1888	49
1889	50
1890	50
1891	53
1892	53
1893	53
1894	53
1895	0
1896	0
1897	30
1898	25
1899	23
1900	28
1901	23
1902	28
1903	28
1904	1
1905	16
1906	0
1907	8
1908	1
1909	4
1910	1
1911	1
1912	2
1913	4
1914	1
1915	5
1916	2
1917	0
1918	3
1919	2
1920	2
1921	4
1922	2
1923	2
1924	2
1925	1
1926	0
1927	2
1928	1
1929	6
1930	2
1931	5
1932	3
1933	2
1934	18
1935	0
1936	1
1937	10
1938	3
1939	2
1940	0
1941	17
1942	2
1943	1
1944	3
1945	9
1946	17
1947	15
1948	17
1949	15
1950	16
1951	14
1952	8
1953	8
1954	8
1955	14
1956	5
1957	112
1958	112
1959	110
1960	112
1961	110
1962	7
1963	44
1964	112
1965	81
1966	112
1967	112
1968	27
1969	110
1970	112
1971	54
1972	112
1973	112
1974	108
1975	112
1976	112
1977	112
1978	112
1979	112
1980	112
1981	109
1982	109
1983	112
1984	78
1985	106
1986	112
1987	108
1988	112
1989	0
1990	37
1991	110
1992	109
1993	19
1994	112
1995	112
1996	112
1997	109
1998	112
1999	112
2000	112
2001	112
2002	110
2003	112
2004	24
2005	112
2006	112
2007	109
2008	5
2009	110
2010	112
2011	110
2012	112
2013	54
2014	6
2015	112
2016	5
2017	112
2018	112
2019	109
2020	78
2021	112
2022	7
2023	112
2024	110
2025	112
2026	112
2027	112
2028	112
2029	112
2030	62
2031	18
2032	16
2033	16
2034	11
2035	29
2036	112
2037	112
2038	5
2039	1
2040	3
2041	5
2042	3
2043	3
2044	5
2045	4
2046	13
2047	4
2048	2
2049	1
2050	3
2051	21
2052	20
2053	4
2054	8
2055	19
2056	12
2057	2
2058	2
2059	6
2060	7
2061	1
2062	6
2063	28
2064	6
2065	14
2066	5
2067	22
2068	2
2069	5
2070	2
2071	7
2072	8
2073	8
2074	18
2075	7
2076	53
2077	112
2078	17
2079	7
2080	11
2081	26
2082	22
2083	28
2084	5
2085	8
2086	7
2087	2
2088	19
2089	12
2090	23
2091	12
2092	5
2093	4
2094	6
2095	28
2096	15
2097	8
2098	2
2099	19
2100	20
2101	51
2102	6
2103	16
2104	112
2105	1
2106	24
2107	30
2108	9
2109	3
2110	13
2111	18
2112	10
2113	14
2114	7
2115	9
2116	6
2117	4
2118	5
2119	7
2120	2
2121	18
2122	2
2123	22
2124	3
2125	28
2126	2
2127	7
2128	3
2129	20
2130	36
2131	1
2132	3
2133	112
2134	14
2135	7
2136	5
2137	22
2138	18
2139	7
2140	3
2141	15
2142	16
2143	7
2144	3
2145	2
2146	22
2147	4
2148	12
2149	28
2150	22
2151	7
2152	14
2153	22
2154	38
2155	6
2156	20
2157	4
2158	22
2159	18
2160	6
2161	10
2162	31
2163	17
2164	0
2165	9
2166	7
2167	4
2168	15
2169	24
2170	2
2171	16
2172	9
2173	6
2174	7
2175	9
2176	9
2177	22
2178	112
2179	107
2180	8
2181	19
2182	19
2183	16
2184	2
2185	26
2186	27
2187	22
2188	2
2189	3
2190	12
2191	7
2192	18
2193	6
2194	16
2195	3
2196	13
2197	7
2198	6
2199	8
2200	9
2201	9
2202	22
2203	16
2204	112
2205	2
2206	15
2207	16
2208	4
2209	3
2210	40
2211	10
2212	10
2213	20
2214	4
2215	19
2216	10
2217	3
2218	2
2219	1
2220	13
2221	17
2222	11
2223	7
2224	7
2225	12
2226	22
2227	18
2228	8
2229	2
2230	2
2231	2
2232	2
2233	4
2234	2
2235	5
2236	7
2237	1
2238	2
2239	11
2240	0
2241	9
2242	8
2243	12
2244	0
2245	21
2246	8
2247	112
2248	5
2249	112
2250	20
2251	5
2252	9
2253	22
2254	10
2255	17
2256	2
2257	0
2258	112
2259	2
2260	2
2261	8
2262	2
2263	2
2264	16
2265	14
2266	0
2267	0
2268	12
2269	112
2270	6
2271	13
2272	5
2273	15
2274	10
2275	18
2276	54
2277	13
2278	6
2279	8
2280	18
2281	12
2282	2
2283	22
2284	8
2285	27
2286	13
2287	6
2288	112
2289	19
2290	20
2291	7
2292	20
2293	9
2294	17
2295	2
2296	8
2297	14
2298	11
2299	4
2300	2
2301	3
2302	19
2303	2
2304	15
2305	18
2306	20
2307	15
2308	101
2309	40
2310	112
2311	13
2312	2
2313	20
2314	18
2315	12
2316	9
2317	22
2318	7
2319	15
2320	20
2321	23
2322	22
2323	20
2324	5
2325	9
2326	22
2327	9
2328	1
2329	10
2330	10
2331	20
2332	5
2333	9
2334	6
2335	14
2336	112
2337	7
2338	2
2339	3
2340	8
2341	7
2342	2
2343	2
2344	16
2345	112
2346	4
2347	4
2348	2
2349	18
2350	8
2351	30
2352	19
2353	11
2354	21
2355	5
2356	22
2357	12
2358	22
2359	11
2360	2
2361	17
2362	112
2363	18
2364	9
2365	1
2366	11
2367	8
2368	8
2369	7
2370	14
2371	9
2372	6
2373	2
2374	53
2375	18
2376	2
2377	5
2378	18
2379	16
2380	7
2381	18
2382	14
2383	4
2384	21
2385	1
2386	6
2387	6
2388	9
2389	0
2390	4
2391	9
2392	20
2393	11
2394	7
2395	20
2396	0
2397	18
2398	25
2399	112
2400	38
2401	3
2402	5
2403	6
2404	21
2405	14
2406	2
2407	11
2408	4
2409	2
2410	12
2411	7
2412	5
2413	8
2414	9
2415	4
2416	112
2417	22
2418	31
2419	22
2420	1
2421	10
2422	7
2423	5
2424	17
2425	8
2426	22
2427	3
2428	7
2429	7
2430	7
2431	2
2432	10
2433	6
2434	2
2435	9
2436	112
2437	21
2438	18
2439	2
2440	20
2441	2
2442	22
2443	11
2444	18
2445	2
2446	2
2447	9
2448	7
2449	2
2450	9
2451	9
2452	6
2453	2
2454	7
2455	22
2456	31
2457	3
2458	3
2459	14
2460	4
2461	2
2462	28
2463	72
2464	3
2465	14
2466	6
2467	9
2468	17
2469	10
2470	8
2471	3
2472	7
2473	19
2474	2
2475	1
2476	2
2477	19
2478	16
2479	2
2480	7
2481	7
2482	110
2483	2
2484	10
2485	2
2486	7
2487	10
2488	20
2489	8
2490	4
2491	8
2492	7
2493	2
2494	8
2495	112
2496	3
2497	22
2498	6
2499	7
2500	10
2501	2
2502	12
2503	112
2504	19
2505	22
2506	2
2507	2
2508	7
2509	2
2510	112
2511	8
2512	22
2513	112
2514	8
2515	6
2516	10
2517	4
2518	2
2519	112
2520	3
2521	8
2522	2
2523	112
2524	2
2525	2
2526	6
2527	22
2528	6
2529	2
2530	22
2531	28
2532	6
2533	7
2534	4
2535	2
2536	9
2537	10
2538	28
2539	2
2540	31
2541	4
2542	2
2543	19
2544	5
2545	4
2546	66
2547	0
2548	18
2549	46
2550	44
2551	15
2552	4
2553	3
2554	3
2555	3
2556	7
2557	9
2558	10
2559	95
2560	112
2561	3
2562	4
2563	2
2564	7
2565	21
2566	12
2567	8
2568	2
2569	19
2570	2
2571	2
2572	8
2573	21
2574	2
2575	40
2576	7
2577	7
2578	3
2579	10
2580	14
2581	16
2582	13
2583	15
2584	8
2585	22
2586	9
2587	4
2588	2
2589	9
2590	7
2591	7
2592	9
2593	2
2594	20
2595	4
2596	31
2597	7
2598	8
2599	9
2600	2
2601	0
2602	3
2603	21
2604	7
2605	2
2606	2
2607	29
2608	1
2609	2
2610	15
2611	8
2612	4
2613	22
2614	3
2615	112
2616	19
2617	5
2618	15
2619	20
2620	1
2621	9
2622	7
2623	31
2624	6
2625	10
2626	12
2627	7
2628	18
2629	7
2630	0
2631	20
2632	15
2633	3
2634	7
2635	10
2636	8
2637	7
2638	7
2639	4
2640	2
2641	12
2642	53
2643	30
2644	9
2645	17
2646	25
2647	6
2648	4
2649	16
2650	5
2651	2
2652	2
2653	2
2654	3
2655	9
2656	3
2657	6
2658	11
2659	2
2660	54
2661	16
2662	12
2663	16
2664	8
2665	7
2666	8
2667	7
2668	22
2669	20
2670	2
2671	7
2672	101
2673	9
2674	2
2675	20
2676	16
2677	9
2678	48
2679	15
2680	18
2681	2
2682	3
2683	2
2684	7
2685	3
2686	2
2687	7
2688	19
2689	8
2690	8
2691	1
2692	13
2693	16
2694	28
2695	10
2696	2
2697	22
2698	16
2699	11
2700	12
2701	2
2702	9
2703	8
2704	2
2705	7
2706	22
2707	4
2708	19
2709	11
2710	2
2711	19
2712	8
2713	2
2714	8
2715	2
2716	6
2717	63
2718	2
2719	6
2720	19
2721	20
2722	112
2723	40
2724	30
2725	18
2726	3
2727	18
2728	9
2729	6
2730	10
2731	112
2732	6
2733	4
2734	27
2735	5
2736	8
2737	2
2738	3
2739	7
2740	3
2741	18
2742	5
2743	40
2744	20
2745	13
2746	20
2747	2
2748	2
2749	18
2750	22
2751	2
2752	7
2753	3
2754	43
2755	2
2756	7
2757	2
2758	2
2759	2
2760	1
2761	2
2762	7
2763	12
2764	2
2765	22
2766	22
2767	4
2768	5
2769	112
2770	2
2771	26
2772	13
2773	1
2774	29
2775	6
2776	5
2777	2
2778	18
2779	9
2780	2
2781	40
2782	22
2783	112
2784	112
2785	2
2786	7
2787	20
2788	6
2789	11
2790	14
2791	11
2792	20
2793	40
2794	2
2795	31
2796	7
2797	6
2798	9
2799	8
2800	3
2801	3
2802	4
2803	6
2804	22
2805	3
2806	3
2807	7
2808	2
2809	26
2810	19
2811	5
2812	7
2813	7
2814	8
2815	19
2816	18
2817	10
2818	7
2819	99
2820	11
2821	2
2822	112
2823	3
2824	2
2825	4
2826	10
2827	8
2828	26
2829	12
2830	13
2831	2
2832	2
2833	2
2834	5
2835	31
2836	9
2837	112
2838	5
2839	4
2840	26
2841	28
2842	21
2843	26
2844	3
2845	112
2846	3
2847	28
2848	74
2849	6
2850	20
2851	3
2852	21
2853	18
2854	2
2855	5
2856	6
2857	9
2858	39
2859	3
2860	22
2861	7
2862	9
2863	16
2864	5
2865	2
2866	9
2867	4
2868	112
2869	6
2870	7
2871	8
2872	26
2873	30
2874	9
2875	31
2876	18
2877	7
2878	112
2879	2
2880	108
2881	18
2882	16
2883	16
2884	19
2885	22
2886	2
2887	34
2888	2
2889	26
2890	2
2891	9
2892	22
2893	3
2894	29
2895	9
2896	29
2897	2
2898	2
2899	11
2900	2
2901	8
2902	3
2903	3
2904	2
2905	8
2906	7
2907	31
2908	2
2909	11
2910	11
2911	2
2912	4
2913	6
2914	2
2915	2
2916	18
2917	2
2918	5
2919	2
2920	11
2921	2
2922	6
2923	2
2924	8
2925	1
2926	17
2927	22
2928	4
2929	7
2930	8
2931	9
2932	8
2933	17
2934	1
2935	6
2936	17
2937	31
2938	28
2939	2
2940	7
2941	6
2942	7
2943	4
2944	4
2945	6
2946	22
2947	1
2948	28
2949	5
2950	2
2951	4
2952	33
2953	8
2954	2
2955	27
2956	0
2957	15
2958	0
2959	10
2960	2
2961	11
2962	4
2963	15
2964	24
2965	2
2966	112
2967	11
2968	2
2969	2
2970	2
2971	4
2972	8
2973	102
2974	9
2975	2
2976	1
2977	10
2978	15
2979	32
2980	6
2981	7
2982	2
2983	18
2984	2
2985	2
2986	7
2987	3
2988	20
2989	2
2990	7
2991	13
2992	13
2993	8
2994	45
2995	8
2996	16
2997	7
2998	7
2999	11
3000	17
3001	18
3002	4
3003	31
3004	2
3005	7
3006	9
3007	24
3008	5
3009	8
3010	7
3011	2
3012	15
3013	2
3014	6
3015	10
3016	30
3017	7
3018	19
3019	2
3020	25
3021	24
3022	101
3023	6
3024	112
3025	30
3026	21
3027	2
3028	9
3029	19
3030	5
3031	15
3032	2
3033	8
3034	112
3035	5
3036	2
3037	8
3038	31
3039	11
3040	3
3041	9
3042	22
3043	110
3044	19
3045	31
3046	5
3047	7
3048	15
3049	18
3050	112
3051	13
3052	10
3053	2
3054	4
3055	2
3056	112
3057	8
3058	13
3059	13
3060	112
3061	15
3062	6
3063	18
3064	7
3065	2
3066	2
3067	12
3068	7
3069	10
3070	49
3071	27
3072	112
3073	18
3074	7
3075	7
3076	20
3077	8
3078	19
3079	1
3080	2
3081	18
3082	14
3083	7
3084	5
3085	3
3086	2
3087	25
3088	15
3089	2
3090	22
3091	0
3092	2
3093	2
3094	7
3095	8
3096	4
3097	20
3098	2
3099	7
3100	8
3101	19
3102	5
3103	43
3104	2
3105	9
3106	11
3107	6
3108	2
3109	5
3110	18
3111	6
3112	22
3113	2
3114	112
3115	22
3116	40
3117	40
3118	35
3119	7
3120	41
3121	6
3122	20
3123	5
3124	14
3125	1
3126	22
3127	7
3128	2
3129	9
3130	6
3131	7
3132	8
3133	20
3134	22
3135	2
3136	19
3137	2
3138	3
3139	4
3140	28
3141	3
3142	7
3143	8
3144	29
3145	31
3146	2
3147	5
3148	2
3149	17
3150	5
3151	3
3152	29
3153	11
3154	6
3155	15
3156	22
3157	15
3158	18
3159	6
3160	4
3161	7
3162	6
3163	7
3164	0
3165	21
3166	5
3167	2
3168	3
3169	8
3170	15
3171	11
3172	5
3173	10
3174	6
3175	23
3176	2
3177	7
3178	22
3179	40
3180	2
3181	18
3182	6
3183	7
3184	2
3185	3
3186	4
3187	28
3188	4
3189	1
3190	2
3191	6
3192	2
3193	13
3194	20
3195	18
3196	54
3197	5
3198	2
3199	5
3200	4
3201	31
3202	3
3203	2
3204	30
3205	2
3206	22
3207	0
3208	6
3209	13
3210	7
3211	15
3212	11
3213	5
3214	11
3215	5
3216	19
3217	2
3218	9
3219	2
3220	8
3221	101
3222	112
3223	4
3224	4
3225	3
3226	26
3227	4
3228	8
3229	7
3230	2
3231	2
3232	7
3233	20
3234	2
3235	6
3236	4
3237	30
3238	2
3239	112
3240	7
3241	6
3242	12
3243	5
3244	15
3245	4
3246	53
3247	21
3248	6
3249	6
3250	14
3251	2
3252	8
3253	2
3254	112
3255	18
3256	2
3257	10
3258	78
3259	3
3260	20
3261	91
3262	6
3263	4
3264	2
3265	8
3266	2
3267	2
3268	14
3269	9
3270	6
3271	8
3272	13
3273	7
3274	112
3275	2
3276	2
3277	2
3278	9
3279	8
3280	7
3281	22
3282	2
3283	6
3284	4
3285	25
3286	2
3287	6
3288	112
3289	49
3290	28
3291	2
3292	4
3293	4
3294	2
3295	10
3296	7
3297	24
3298	13
3299	13
3300	7
3301	3
3302	8
3303	22
3304	22
3305	3
3306	18
3307	2
3308	4
3309	14
3310	8
3311	2
3312	31
3313	53
3314	7
3315	12
3316	5
3317	2
3318	15
3319	5
3320	2
3321	2
3322	16
3323	11
3324	18
3325	16
3326	13
3327	2
3328	11
3329	5
3330	2
3331	8
3332	29
3333	8
3334	17
3335	2
3336	24
3337	2
3338	6
3339	15
3340	12
3341	11
3342	40
3343	12
3344	6
3345	8
3346	4
3347	28
3348	11
3349	11
3350	2
3351	112
3352	112
3353	4
3354	22
3355	112
3356	38
3357	4
3358	17
3359	18
3360	8
3361	18
3362	31
3363	3
3364	7
3365	5
3366	11
3367	7
3368	0
3369	10
3370	5
3371	14
3372	8
3373	8
3374	48
3375	0
3376	9
3377	15
3378	101
3379	10
3380	49
3381	9
3382	10
3383	6
3384	2
3385	112
3386	22
3387	1
3388	2
3389	4
3390	8
3391	2
3392	7
3393	2
3394	24
3395	3
3396	7
3397	6
3398	53
3399	9
3400	7
3401	112
3402	30
3403	2
3404	2
3405	28
3406	8
3407	54
3408	8
3409	16
3410	7
3411	3
3412	8
3413	18
3414	5
3415	3
3416	8
3417	9
3418	9
3419	15
3420	19
3421	7
3422	18
3423	6
3424	6
3425	112
3426	2
3427	6
3428	18
3429	9
3430	22
3431	8
3432	8
3433	22
3434	6
3435	20
3436	2
3437	7
3438	9
3439	11
3440	2
3441	2
3442	3
3443	20
3444	112
3445	17
3446	4
3447	2
3448	4
3449	25
3450	2
3451	2
3452	4
3453	6
3454	112
3455	22
3456	40
3457	11
3458	112
3459	3
3460	4
3461	38
3462	22
3463	24
3464	3
3465	10
3466	4
3467	3
3468	13
3469	22
3470	2
3471	3
3472	3
3473	2
3474	8
3475	2
3476	109
3477	7
3478	4
3479	2
3480	2
3481	3
3482	6
3483	7
3484	7
3485	11
3486	3
3487	13
3488	8
3489	14
3490	2
3491	7
3492	5
3493	5
3494	11
3495	22
3496	5
3497	98
3498	28
3499	7
3500	8
3501	28
3502	2
3503	7
3504	2
3505	2
3506	5
3507	9
3508	16
3509	16
3510	22
3511	2
3512	7
3513	8
3514	2
3515	2
3516	14
3517	7
3518	1
3519	16
3520	5
3521	10
3522	22
3523	19
3524	22
3525	6
3526	22
3527	7
3528	2
3529	2
3530	28
3531	8
3532	112
3533	2
3534	2
3535	16
3536	7
3537	53
3538	7
3539	8
3540	26
3541	7
3542	2
3543	2
3544	112
3545	7
3546	2
3547	16
3548	10
3549	3
3550	5
3551	18
3552	7
3553	14
3554	13
3555	7
3556	19
3557	2
3558	22
3559	9
3560	3
3561	22
3562	19
3563	12
3564	2
3565	13
3566	2
3567	7
3568	9
3569	7
3570	7
3571	8
3572	2
3573	2
3574	10
3575	10
3576	7
3577	5
3578	10
3579	5
3580	6
3581	13
3582	7
3583	8
3584	2
3585	5
3586	10
3587	14
3588	112
3589	112
3590	5
3591	8
3592	8
3593	3
3594	8
3595	2
3596	12
3597	10
3598	7
3599	2
3600	22
3601	5
3602	8
3603	110
3604	2
3605	5
3606	8
3607	4
3608	9
3609	17
3610	2
3611	5
3612	22
3613	8
3614	2
3615	16
3616	2
3617	27
3618	107
3619	9
3620	6
3621	20
3622	8
3623	8
3624	2
3625	6
3626	2
3627	54
3628	5
3629	8
3630	112
3631	2
3632	2
3633	12
3634	0
3635	8
3636	1
3637	1
3638	10
3639	2
3640	1
3641	5
3642	2
3643	29
3644	2
3645	18
3646	9
3647	31
3648	30
3649	7
3650	6
3651	2
3652	8
3653	3
3654	6
3655	2
3656	18
3657	0
3658	1
3659	19
3660	5
3661	7
3662	7
3663	62
3664	2
3665	2
3666	12
3667	20
3668	14
3669	11
3670	2
3671	3
3672	2
3673	16
3674	21
3675	37
3676	9
3677	6
3678	9
3679	2
3680	8
3681	7
3682	23
3683	27
3684	112
3685	9
3686	2
3687	28
3688	7
3689	7
3690	3
3691	11
3692	51
3693	93
3694	21
3695	28
3696	8
3697	31
3698	11
3699	11
3700	7
3701	16
3702	54
3703	6
3704	48
3705	10
3706	2
3707	48
3708	22
3709	22
3710	6
3711	7
3712	31
3713	107
3714	15
3715	2
3716	3
3717	102
3718	5
3719	2
3720	7
3721	101
3722	62
3723	65
3724	8
3725	14
3726	16
3727	3
3728	7
3729	40
3730	19
3731	2
3732	2
3733	2
3734	5
3735	2
3736	7
3737	16
3738	22
3739	7
3740	10
3741	2
3742	2
3743	18
3744	2
3745	9
3746	2
3747	9
3748	10
3749	3
3750	30
3751	11
3752	3
3753	8
3754	22
3755	7
3756	5
3757	7
3758	8
3759	22
3760	2
3761	27
3762	101
3763	10
3764	4
3765	6
3766	8
3767	2
3768	36
3769	2
3770	4
3771	4
3772	18
3773	7
3774	2
3775	54
3776	2
3777	2
3778	2
3779	7
3780	76
3781	25
3782	101
3783	2
3784	27
3785	1
3786	20
3787	7
3788	22
3789	20
3790	16
3791	5
3792	3
3793	112
3794	11
3795	13
3796	15
3797	31
3798	2
3799	17
3800	2
3801	6
3802	29
3803	8
3804	16
3805	112
3806	0
3807	4
3808	2
3809	2
3810	2
3811	9
3812	19
3813	6
3814	4
3815	3
3816	21
3817	2
3818	47
3819	2
3820	14
3821	7
3822	7
3823	20
3824	19
3825	112
3826	2
3827	26
3828	13
3829	2
3830	112
3831	2
3832	19
3833	2
3834	16
3835	8
3836	14
3837	1
3838	13
3839	66
3840	7
3841	8
3842	8
3843	2
3844	2
3845	8
3846	4
3847	2
3848	2
3849	12
3850	3
3851	9
3852	13
3853	19
3854	28
3855	7
3856	5
3857	2
3858	5
3859	2
3860	10
3861	7
3862	2
3863	2
3864	20
3865	2
3866	15
3867	112
3868	2
3869	2
3870	7
3871	3
3872	16
3873	112
3874	38
3875	24
3876	25
3877	19
3878	10
3879	9
3880	19
3881	95
3882	26
3883	8
3884	7
3885	6
3886	7
3887	2
3888	7
3889	21
3890	2
3891	2
3892	5
3893	54
3894	18
3895	28
3896	10
3897	20
3898	10
3899	3
3900	2
3901	101
3902	14
3903	2
3904	24
3905	40
3906	5
3907	16
3908	15
3909	4
3910	8
3911	4
3912	10
3913	2
3914	8
3915	5
3916	3
3917	2
3918	4
3919	2
3920	16
3921	2
3922	2
3923	10
3924	36
3925	2
3926	112
3927	11
3928	49
3929	104
3930	1
3931	2
3932	4
3933	7
3934	6
3935	2
3936	2
3937	4
3938	9
3939	6
3940	20
3941	54
3942	2
3943	7
3944	3
3945	2
3946	2
3947	2
3948	2
3949	2
3950	19
3951	2
3952	2
3953	10
3954	4
3955	2
3956	2
3957	2
3958	14
3959	19
3960	13
3961	2
3962	10
3963	3
3964	2
3965	2
3966	10
3967	6
3968	3
3969	5
3970	2
3971	20
3972	2
3973	0
3974	8
3975	12
3976	13
3977	6
3978	3
3979	2
3980	7
3981	8
3982	2
3983	31
3984	2
3985	2
3986	13
3987	7
3988	19
3989	2
3990	12
3991	5
3992	5
3993	18
3994	22
3995	10
3996	4
3997	6
3998	2
3999	4
4000	10
4001	4
4002	2
4003	2
4004	15
4005	26
4006	4
4007	12
4008	27
4009	3
4010	13
4011	9
4012	12
4013	22
4014	13
4015	18
4016	3
4017	3
4018	6
4019	2
4020	18
4021	5
4022	6
4023	7
4024	4
4025	12
4026	22
4027	5
4028	16
4029	5
4030	5
4031	20
4032	19
4033	5
4034	62
4035	2
4036	2
4037	0
4038	44
4039	7
4040	9
4041	6
4042	5
4043	3
4044	31
4045	22
4046	21
4047	8
4048	2
4049	6
4050	10
4051	10
4052	31
4053	8
4054	2
4055	9
4056	6
4057	5
4058	53
4059	10
4060	4
4061	2
4062	11
4063	2
4064	12
4065	2
4066	5
4067	2
4068	3
4069	19
4070	1
4071	20
4072	3
4073	31
4074	101
4075	2
4076	10
4077	76
4078	9
4079	9
4080	1
4081	8
4082	2
4083	31
4084	9
4085	2
4086	2
4087	112
4088	28
4089	16
4090	2
4091	7
4092	2
4093	2
4094	10
4095	2
4096	112
4097	2
4098	2
4099	2
4100	24
4101	9
4102	8
4103	4
4104	7
4105	112
4106	9
4107	7
4108	31
4109	5
4110	33
4111	2
4112	3
4113	24
4114	3
4115	3
4116	19
4117	8
4118	5
4119	3
4120	2
4121	15
4122	4
4123	20
4124	0
4125	2
4126	112
4127	16
4128	19
4129	3
4130	112
4131	7
4132	22
4133	14
4134	5
4135	3
4136	22
4137	101
4138	20
4139	11
4140	2
4141	1
4142	2
4143	5
4144	5
4145	10
4146	7
4147	6
4148	2
4149	2
4150	6
4151	112
4152	3
4153	3
4154	112
4155	16
4156	2
4157	11
4158	5
4159	29
4160	12
4161	4
4162	4
4163	7
4164	10
4165	11
4166	14
4167	20
4168	3
4169	2
4170	22
4171	3
4172	8
4173	14
4174	2
4175	11
4176	108
4177	31
4178	21
4179	11
4180	6
4181	2
4182	4
4183	16
4184	21
4185	13
4186	2
4187	23
4188	6
4189	2
4190	2
4191	2
4192	8
4193	9
4194	14
4195	2
4196	2
4197	7
4198	10
4199	17
4200	8
4201	2
4202	2
4203	8
4204	54
4205	20
4206	9
4207	112
4208	7
4209	2
4210	2
4211	3
4212	28
4213	9
4214	26
4215	20
4216	8
4217	8
4218	2
4219	12
4220	15
4221	8
4222	2
4223	22
4224	31
4225	8
4226	2
4227	8
4228	19
4229	8
4230	7
4231	8
4232	2
4233	2
4234	29
4235	8
4236	20
4237	2
4238	2
4239	9
4240	66
4241	1
4242	54
4243	13
4244	2
4245	2
4246	11
4247	8
4248	110
4249	47
4250	2
4251	2
4252	9
4253	22
4254	2
4255	4
4256	3
4257	7
4258	7
4259	2
4260	31
4261	18
4262	2
4263	2
4264	10
4265	3
4266	78
4267	2
4268	6
4269	112
4270	14
4271	2
4272	9
4273	4
4274	9
4275	4
4276	5
4277	5
4278	112
4279	25
4280	2
4281	5
4282	8
4283	5
4284	2
4285	2
4286	2
4287	4
4288	22
4289	10
4290	13
4291	16
4292	8
4293	22
4294	2
4295	112
4296	22
4297	9
4298	16
4299	8
4300	8
4301	8
4302	20
4303	2
4304	28
4305	2
4306	15
4307	8
4308	31
4309	6
4310	7
4311	4
4312	18
4313	2
4314	4
4315	5
4316	2
4317	2
4318	6
4319	9
4320	7
4321	2
4322	5
4323	5
4324	3
4325	13
4326	101
4327	8
4328	17
4329	1
4330	2
4331	5
4332	10
4333	2
4334	11
4335	30
4336	6
4337	10
4338	4
4339	7
4340	10
4341	8
4342	6
4343	22
4344	12
4345	7
4346	12
4347	2
4348	8
4349	3
4350	12
4351	16
4352	2
4353	18
4354	3
4355	20
4356	14
4357	0
4358	18
4359	7
4360	16
4361	22
4362	22
4363	2
4364	11
4365	31
4366	2
4367	2
4368	2
4369	8
4370	31
4371	13
4372	8
4373	30
4374	21
4375	3
4376	22
4377	11
4378	8
4379	18
4380	10
4381	2
4382	16
4383	10
4384	7
4385	11
4386	30
4387	7
4388	9
4389	18
4390	112
4391	2
4392	1
4393	19
4394	8
4395	7
4396	6
4397	2
4398	10
4399	19
4400	2
4401	5
4402	2
4403	30
4404	28
4405	13
4406	10
4407	19
4408	30
4409	7
4410	112
4411	4
4412	20
4413	14
4414	19
4415	15
4416	19
4417	8
4418	22
4419	9
4420	18
4421	8
4422	1
4423	15
4424	3
4425	17
4426	15
4427	5
4428	39
4429	5
4430	2
4431	7
4432	7
4433	4
4434	1
4435	4
4436	2
4437	3
4438	18
4439	7
4440	54
4441	15
4442	3
4443	7
4444	21
4445	40
4446	5
4447	2
4448	11
4449	4
4450	8
4451	6
4452	29
4453	18
4454	20
4455	3
4456	13
4457	2
4458	27
4459	18
4460	15
4461	10
4462	1
4463	2
4464	12
4465	5
4466	7
4467	7
4468	5
4469	7
4470	9
4471	9
4472	112
4473	20
4474	43
4475	20
4476	24
4477	7
4478	16
4479	0
4480	4
4481	12
4482	6
4483	19
4484	2
4485	11
4486	8
4487	10
4488	2
4489	2
4490	2
4491	9
4492	2
4493	13
4494	10
4495	15
4496	112
4497	22
4498	15
4499	40
4500	9
4501	9
4502	94
4503	2
4504	14
4505	11
4506	3
4507	2
4508	9
4509	11
4510	7
4511	19
4512	9
4513	8
4514	2
4515	7
4516	9
4517	2
4518	22
4519	19
4520	15
4521	8
4522	19
4523	2
4524	18
4525	8
4526	22
4527	22
4528	0
4529	21
4530	6
4531	18
4532	2
4533	53
4534	9
4535	0
4536	30
4537	112
4538	14
4539	31
4540	6
4541	2
4542	16
4543	6
4544	22
4545	2
4546	11
4547	7
4548	16
4549	15
4550	4
4551	22
4552	7
4553	21
4554	2
4555	8
4556	2
4557	4
4558	3
4559	3
4560	29
4561	16
4562	13
4563	2
4564	10
4565	112
4566	9
4567	7
4568	6
4569	5
4570	10
4571	2
4572	8
4573	6
4574	112
4575	8
4576	20
4577	5
4578	3
4579	9
4580	2
4581	101
4582	1
4583	12
4584	4
4585	2
4586	12
4587	20
4588	2
4589	7
4590	26
4591	16
4592	7
4593	22
4594	3
4595	5
4596	22
4597	2
4598	29
4599	8
4600	15
4601	9
4602	19
4603	7
4604	9
4605	2
4606	2
4607	27
4608	10
4609	2
4610	2
4611	5
4612	0
4613	2
4614	23
4615	2
4616	14
4617	2
4618	10
4619	8
4620	6
4621	2
4622	4
4623	5
4624	17
4625	2
4626	1
4627	35
4628	2
4629	2
4630	2
4631	15
4632	16
4633	8
4634	5
4635	20
4636	8
4637	11
4638	11
4639	1
4640	2
4641	2
4642	1
4643	2
4644	6
4645	4
4646	6
4647	7
4648	2
4649	31
4650	2
4651	2
4652	112
4653	2
4654	101
4655	112
4656	14
4657	0
4658	10
4659	1
4660	2
4661	5
4662	9
4663	2
4664	2
4665	8
4666	15
4667	18
4668	0
4669	8
4670	0
4671	1
4672	22
4673	4
4674	6
4675	15
4676	31
4677	10
4678	3
4679	2
4680	9
4681	7
4682	20
4683	6
4684	2
4685	5
4686	22
4687	2
4688	8
4689	5
4690	19
4691	15
4692	15
4693	14
4694	11
4695	8
4696	112
4697	1
4698	2
4699	3
4700	8
4701	14
4702	6
4703	2
4704	6
4705	5
4706	30
4707	5
4708	22
4709	28
4710	16
4711	18
4712	4
4713	54
4714	11
4715	3
4716	8
4717	2
4718	40
4719	7
4720	3
4721	11
4722	3
4723	101
4724	5
4725	6
4726	3
4727	4
4728	4
4729	2
4730	6
4731	8
4732	2
4733	0
4734	17
4735	4
4736	3
4737	6
4738	3
4739	25
4740	16
4741	24
4742	2
4743	2
4744	2
4745	8
4746	9
4747	3
4748	2
4749	24
4750	18
4751	15
4752	1
4753	18
4754	10
4755	9
4756	12
4757	10
4758	7
4759	27
4760	16
4761	9
4762	8
4763	11
4764	20
4765	28
4766	15
4767	2
4768	5
4769	31
4770	9
4771	2
4772	2
4773	7
4774	6
4775	40
4776	6
4777	2
4778	7
4779	2
4780	4
4781	18
4782	5
4783	3
4784	5
4785	2
4786	3
4787	28
4788	7
4789	13
4790	7
4791	5
4792	4
4793	112
4794	6
4795	8
4796	2
4797	7
4798	30
4799	109
4800	1
4801	2
4802	16
4803	10
4804	8
4805	19
4806	2
4807	12
4808	10
4809	2
4810	1
4811	54
4812	7
4813	5
4814	2
4815	16
4816	18
4817	15
4818	35
4819	29
4820	20
4821	29
4822	7
4823	53
4824	2
4825	7
4826	2
4827	8
4828	9
4829	4
4830	2
4831	2
4832	13
4833	2
4834	19
4835	1
4836	7
4837	22
4838	4
4839	4
4840	36
4841	2
4842	2
4843	6
4844	7
4845	31
4846	7
4847	7
4848	4
4849	7
4850	7
4851	2
4852	11
4853	5
4854	7
4855	19
4856	2
4857	3
4858	31
4859	8
4860	20
4861	17
4862	2
4863	5
4864	8
4865	2
4866	13
4867	7
4868	112
4869	7
4870	6
4871	112
4872	36
4873	14
4874	8
4875	22
4876	15
4877	22
4878	7
4879	4
4880	22
4881	7
4882	1
4883	2
4884	22
4885	2
4886	29
4887	0
4888	16
4889	7
4890	2
4891	18
4892	2
4893	22
4894	2
4895	13
4896	18
4897	7
4898	6
4899	4
4900	10
4901	4
4902	2
4903	13
4904	3
4905	2
4906	8
4907	16
4908	5
4909	10
4910	2
4911	6
4912	34
4913	22
4914	0
4915	2
4916	8
4917	2
4918	3
4919	7
4920	8
4921	31
4922	31
4923	7
4924	13
4925	9
4926	8
4927	2
4928	5
4929	29
4930	28
4931	4
4932	2
4933	28
4934	2
4935	9
4936	27
4937	4
4938	2
4939	5
4940	2
4941	19
4942	57
4943	8
4944	9
4945	19
4946	29
4947	5
4948	2
4949	15
4950	28
4951	7
4952	31
4953	4
4954	110
4955	18
4956	21
4957	22
4958	18
4959	18
4960	22
4961	2
4962	2
4963	2
4964	106
4965	31
4966	37
4967	2
4968	112
4969	9
4970	9
4971	4
4972	7
4973	9
4974	3
4975	4
4976	13
4977	2
4978	7
4979	2
4980	71
4981	22
4982	20
4983	3
4984	6
4985	112
4986	5
4987	2
4988	4
4989	2
4990	3
4991	4
4992	2
4993	19
4994	112
4995	2
4996	6
4997	13
4998	6
4999	7
5000	2
5001	29
5002	112
5003	7
5004	2
5005	4
5006	14
5007	8
5008	2
5009	4
5010	2
5011	22
5012	2
5013	5
5014	12
5015	13
5016	2
5017	8
5018	8
5019	2
5020	112
5021	10
5022	21
5023	3
5024	3
5025	5
5026	14
5027	7
5028	101
5029	71
5030	8
5031	2
5032	2
5033	8
5034	1
5035	6
5036	8
5037	16
5038	9
5039	4
5040	20
5041	10
5042	5
5043	112
5044	5
5045	1
5046	112
5047	40
5048	15
5049	2
5050	35
5051	22
5052	7
5053	11
5054	11
5055	9
5056	2
5057	2
5058	13
5059	2
5060	8
5061	15
5062	7
5063	9
5064	102
5065	9
5066	6
5067	2
5068	5
5069	4
5070	8
5071	8
5072	112
5073	2
5074	6
5075	2
5076	9
5077	3
5078	7
5079	2
5080	40
5081	6
5082	1
5083	2
5084	6
5085	6
5086	7
5087	7
5088	112
5089	112
5090	112
5091	8
5092	5
5093	2
5094	2
5095	19
5096	22
5097	20
5098	2
5099	2
5100	18
5101	2
5102	2
5103	3
5104	22
5105	9
5106	6
5107	18
5108	6
5109	2
5110	10
5111	28
5112	3
5113	6
5114	85
5115	12
5116	7
5117	20
5118	8
5119	15
5120	15
5121	14
5122	3
5123	22
5124	7
5125	31
5126	7
5127	12
5128	2
5129	3
5130	22
5131	18
5132	2
5133	2
5134	10
5135	106
5136	2
5137	112
5138	18
5139	11
5140	53
5141	112
5142	112
5143	3
5144	18
5145	2
5146	112
5147	2
5148	13
5149	6
5150	3
5151	7
5152	6
5153	5
5154	8
5155	47
5156	2
5157	2
5158	112
5159	9
5160	2
5161	31
5162	12
5163	7
5164	10
5165	4
5166	2
5167	7
5168	112
5169	26
5170	4
5171	5
5172	69
5173	101
5174	14
5175	6
5176	9
5177	28
5178	2
5179	3
5180	6
5181	2
5182	2
5183	22
5184	1
5185	2
5186	7
5187	3
5188	18
5189	106
5190	21
5191	5
5192	28
5193	4
5194	112
5195	13
5196	9
5197	54
5198	5
5199	21
5200	5
5201	2
5202	31
5203	2
5204	21
5205	6
5206	30
5207	8
5208	25
5209	7
5210	2
5211	10
5212	29
5213	3
5214	2
5215	2
5216	8
5217	112
5218	2
5219	28
5220	14
5221	9
5222	2
5223	2
5224	2
5225	2
5226	2
5227	112
5228	2
5229	112
5230	8
5231	3
5232	2
5233	7
5234	6
5235	9
5236	45
5237	2
5238	112
5239	21
5240	28
5241	8
5242	7
5243	21
5244	10
5245	11
5246	15
5247	3
5248	20
5249	2
5250	11
5251	5
5252	2
5253	5
5254	1
5255	9
5256	7
5257	112
5258	5
5259	7
5260	6
5261	8
5262	14
5263	19
5264	1
5265	5
5266	6
5267	7
5268	31
5269	2
5270	10
5271	7
5272	5
5273	2
5274	18
5275	20
5276	5
5277	4
5278	22
5279	4
5280	2
5281	4
5282	2
5283	10
5284	28
5285	3
5286	6
5287	8
5288	31
5289	9
5290	112
5291	2
5292	4
5293	31
5294	31
5295	8
5296	5
5297	9
5298	3
5299	22
5300	2
5301	19
5302	29
5303	10
5304	2
5305	2
5306	27
5307	19
5308	3
5309	28
5310	12
5311	20
5312	62
5313	2
5314	15
5315	5
5316	7
5317	2
5318	2
5319	4
5320	3
5321	3
5322	2
5323	18
5324	7
5325	11
5326	2
5327	2
5328	2
5329	22
5330	2
5331	15
5332	2
5333	110
5334	2
5335	2
5336	2
5337	8
5338	5
5339	11
5340	2
5341	6
5342	12
5343	5
5344	2
5345	2
5346	8
5347	5
5348	2
5349	112
5350	3
5351	2
5352	8
5353	1
5354	4
5355	22
5356	14
5357	14
5358	9
5359	8
5360	20
5361	12
5362	1
5363	10
5364	7
5365	7
5366	8
5367	112
5368	12
5369	5
5370	2
5371	112
5372	31
5373	4
5374	2
5375	26
5376	8
5377	21
5378	54
5379	91
5380	110
5381	3
5382	2
5383	2
5384	7
5385	4
5386	9
5387	7
5388	7
5389	22
5390	9
5391	112
5392	4
5393	3
5394	10
5395	22
5396	8
5397	31
5398	28
5399	10
5400	6
5401	2
5402	14
5403	11
5404	9
5405	6
5406	13
5407	20
5408	19
5409	89
5410	22
5411	11
5412	5
5413	5
5414	14
5415	2
5416	7
5417	20
5418	7
5419	14
5420	6
5421	5
5422	2
5423	112
5424	9
5425	2
5426	7
5427	8
5428	30
5429	22
5430	16
5431	5
5432	7
5433	8
5434	2
5435	0
5436	30
5437	4
5438	7
5439	13
5440	26
5441	7
5442	33
5443	31
5444	7
5445	31
5446	4
5447	2
5448	112
5449	2
5450	5
5451	2
5452	22
5453	1
5454	8
5455	15
5456	112
5457	2
5458	2
5459	7
5460	28
5461	31
5462	8
5463	3
5464	2
5465	3
5466	2
5467	2
5468	2
5469	20
5470	9
5471	2
5472	2
5473	15
5474	20
5475	15
5476	16
5477	22
5478	7
5479	40
5480	10
5481	8
5482	7
5483	2
5484	8
5485	2
5486	8
5487	5
5488	4
5489	3
5490	29
5491	12
5492	13
5493	15
5494	19
5495	2
5496	8
5497	2
5498	17
5499	2
5500	17
5501	5
5502	5
5503	0
5504	5
5505	6
5506	112
5507	4
5508	2
5509	2
5510	15
5511	15
5512	5
5513	16
5514	14
5515	17
5516	2
5517	3
5518	2
5519	8
5520	33
5521	2
5522	4
5523	0
5524	10
5525	9
5526	2
5527	2
5528	5
5529	3
5530	8
5531	2
5532	57
5533	20
5534	0
5535	1
5536	22
5537	3
5538	2
5539	2
5540	4
5541	10
5542	2
5543	8
5544	7
5545	2
5546	19
5547	17
5548	81
5549	2
5550	0
5551	101
5552	2
5553	11
5554	6
5555	20
5556	112
5557	31
5558	30
5559	15
5560	31
5561	31
5562	112
5563	10
5564	112
5565	48
5566	8
5567	5
5568	11
5569	6
5570	2
5571	3
5572	8
5573	6
5574	40
5575	6
5576	8
5577	2
5578	2
5579	112
5580	3
5581	2
5582	2
5583	6
5584	3
5585	16
5586	12
5587	9
5588	2
5589	21
5590	7
5591	11
5592	8
5593	2
5594	2
5595	19
5596	37
5597	9
5598	10
5599	19
5600	7
5601	112
5602	2
5603	2
5604	0
5605	4
5606	6
5607	29
5608	14
5609	4
5610	8
5611	8
5612	7
5613	112
5614	30
5615	30
5616	11
5617	4
5618	1
5619	112
5620	22
5621	8
5622	6
5623	101
5624	7
5625	9
5626	22
5627	5
5628	21
5629	6
5630	4
5631	112
5632	22
5633	24
5634	18
5635	0
5636	30
5637	8
5638	19
5639	5
5640	10
5641	2
5642	18
5643	2
5644	7
5645	31
5646	7
5647	22
5648	3
5649	4
5650	2
5651	31
5652	80
5653	4
5654	3
5655	2
5656	20
5657	5
5658	7
5659	27
5660	5
5661	22
5662	2
5663	2
5664	10
5665	2
5666	3
5667	2
5668	2
5669	7
5670	8
5671	2
5672	2
5673	11
5674	2
5675	6
5676	19
5677	3
5678	21
5679	7
5680	15
5681	3
5682	3
5683	14
5684	16
5685	9
5686	2
5687	2
5688	2
5689	16
5690	5
5691	4
5692	30
5693	4
5694	6
5695	19
5696	2
5697	2
5698	27
5699	112
5700	5
5701	8
5702	8
5703	22
5704	22
5705	8
5706	2
5707	7
5708	112
5709	15
5710	2
5711	33
5712	6
5713	10
5714	12
5715	7
5716	4
5717	4
5718	2
5719	6
5720	100
5721	8
5722	29
5723	8
5724	3
5725	22
5726	9
5727	9
5728	18
5729	18
5730	2
5731	15
5732	2
5733	3
5734	4
5735	20
5736	17
5737	2
5738	17
5739	12
5740	4
5741	16
5742	18
5743	19
5744	4
5745	11
5746	9
5747	8
5748	7
5749	9
5750	2
5751	16
5752	20
5753	5
5754	1
5755	16
5756	22
5757	31
5758	2
5759	7
5760	2
5761	22
5762	28
5763	2
5764	1
5765	22
5766	2
5767	2
5768	2
5769	10
5770	7
5771	2
5772	112
5773	3
5774	8
5775	7
5776	7
5777	40
5778	6
5779	2
5780	20
5781	11
5782	2
5783	15
5784	19
5785	6
5786	6
5787	112
5788	2
5789	112
5790	6
5791	2
5792	2
5793	6
5794	2
5795	0
5796	5
5797	31
5798	2
5799	1
5800	6
5801	4
5802	8
5803	15
5804	7
5805	3
5806	2
5807	2
5808	19
5809	7
5810	2
5811	3
5812	8
5813	5
5814	8
5815	15
5816	3
5817	4
5818	1
5819	10
5820	19
5821	30
5822	6
5823	10
5824	112
5825	7
5826	2
5827	10
5828	6
5829	6
5830	22
5831	7
5832	5
5833	5
5834	7
5835	6
5836	2
5837	8
5838	18
5839	7
5840	31
5841	7
5842	2
5843	16
5844	2
5845	8
5846	8
5847	14
5848	31
5849	7
5850	40
5851	22
5852	24
5853	9
5854	11
5855	7
5856	2
5857	16
5858	1
5859	7
5860	20
5861	3
5862	7
5863	2
5864	77
5865	5
5866	20
5867	4
5868	1
5869	13
5870	22
5871	13
5872	36
5873	2
5874	2
5875	40
5876	2
5877	31
5878	22
5879	18
5880	28
5881	2
5882	3
5883	2
5884	110
5885	1
5886	8
5887	1
5888	112
5889	5
5890	4
5891	2
5892	31
5893	8
5894	18
5895	2
5896	16
5897	8
5898	112
5899	16
5900	112
5901	3
5902	7
5903	16
5904	4
5905	10
5906	6
5907	67
5908	16
5909	7
5910	4
5911	16
5912	108
5913	20
5914	2
5915	8
5916	11
5917	28
5918	24
5919	1
5920	29
5921	7
5922	2
5923	2
5924	6
5925	5
5926	31
5927	27
5928	3
5929	9
5930	18
5931	2
5932	24
5933	20
5934	22
5935	20
5936	2
5937	6
5938	8
5939	2
5940	8
5941	26
5942	7
5943	6
5944	3
5945	6
5946	22
5947	112
5948	31
5949	2
5950	9
5951	6
5952	2
5953	15
5954	18
5955	2
5956	5
5957	22
5958	0
5959	112
5960	11
5961	15
5962	9
5963	9
5964	8
5965	2
5966	10
5967	8
5968	7
5969	3
5970	14
5971	2
5972	2
5973	7
5974	3
5975	3
5976	11
5977	19
5978	3
5979	9
5980	5
5981	10
5982	1
5983	2
5984	2
5985	110
5986	3
5987	36
5988	22
5989	2
5990	13
5991	6
5992	1
5993	19
5994	2
5995	33
5996	14
5997	2
5998	2
5999	4
6000	101
6001	8
6002	6
6003	14
6004	2
6005	15
6006	2
6007	3
6008	10
6009	3
6010	14
6011	2
6012	18
6013	11
6014	1
6015	2
6016	2
6017	8
6018	7
6019	23
6020	4
6021	5
6022	15
6023	2
6024	5
6025	2
6026	7
6027	10
6028	4
6029	7
6030	29
6031	6
6032	22
6033	9
6034	20
6035	101
6036	15
6037	4
6038	2
6039	2
6040	40
6041	7
6042	10
6043	20
6044	27
6045	5
6046	10
6047	8
6048	6
6049	11
6050	22
6051	75
6052	6
6053	22
6054	20
6055	8
6056	22
6057	9
6058	2
6059	3
6060	4
6061	15
6062	8
6063	9
6064	7
6065	10
6066	14
6067	30
6068	53
6069	31
6070	3
6071	4
6072	13
6073	2
6074	33
6075	2
6076	7
6077	2
6078	19
6079	91
6080	4
6081	110
6082	20
6083	2
6084	21
6085	9
6086	4
6087	2
6088	21
6089	11
6090	112
6091	4
6092	1
6093	13
6094	4
6095	7
6096	3
6097	6
6098	3
6099	49
6100	8
6101	7
6102	11
6103	7
6104	19
6105	11
6106	8
6107	7
6108	54
6109	5
6110	17
6111	5
6112	20
6113	4
6114	31
6115	33
6116	7
6117	91
6118	22
6119	3
6120	20
6121	22
6122	13
6123	5
6124	7
6125	20
6126	40
6127	22
6128	2
6129	6
6130	14
6131	112
6132	8
6133	54
6134	2
6135	10
6136	21
6137	2
6138	2
6139	16
6140	7
6141	7
6142	1
6143	5
6144	7
6145	16
6146	7
6147	0
6148	11
6149	10
6150	20
6151	9
6152	17
6153	2
6154	7
6155	5
6156	8
6157	2
6158	2
6159	6
6160	39
6161	3
6162	2
6163	17
6164	2
6165	109
6166	22
6167	11
6168	112
6169	7
6170	8
6171	5
6172	8
6173	13
6174	7
6175	6
6176	3
6177	2
6178	2
6179	15
6180	7
6181	11
6182	5
6183	7
6184	29
6185	6
6186	13
6187	10
6188	2
6189	2
6190	62
6191	22
6192	14
6193	3
6194	3
6195	13
6196	50
6197	2
6198	12
6199	5
6200	2
6201	30
6202	31
6203	6
6204	4
6205	5
6206	18
6207	5
6208	9
6209	28
6210	31
6211	10
6212	22
6213	2
6214	19
6215	19
6216	8
6217	11
6218	2
6219	18
6220	7
6221	7
6222	3
6223	20
6224	4
6225	3
6226	15
6227	3
6228	10
6229	7
6230	15
6231	31
6232	31
6233	2
6234	18
6235	6
6236	6
6237	5
6238	22
6239	8
6240	22
6241	8
6242	22
6243	13
6244	6
6245	2
6246	2
6247	5
6248	11
6249	12
6250	2
6251	7
6252	13
6253	3
6254	7
6255	2
6256	20
6257	7
6258	3
6259	9
6260	8
6261	6
6262	14
6263	8
6264	2
6265	5
6266	19
6267	22
6268	8
6269	10
6270	112
6271	5
6272	5
6273	7
6274	15
6275	3
6276	70
6277	11
6278	0
6279	22
6280	2
6281	15
6282	3
6283	2
6284	6
6285	7
6286	22
6287	12
6288	10
6289	6
6290	7
6291	2
6292	6
6293	2
6294	101
6295	0
6296	5
6297	18
6298	9
6299	10
6300	4
6301	15
6302	8
6303	2
6304	5
6305	2
6306	9
6307	12
6308	20
6309	2
6310	2
6311	108
6312	6
6313	8
6314	18
6315	112
6316	28
6317	29
6318	9
6319	7
6320	9
6321	109
6322	2
6323	18
6324	8
6325	2
6326	112
6327	2
6328	8
6329	5
6330	16
6331	8
6332	27
6333	22
6334	2
6335	2
6336	2
6337	13
6338	10
6339	16
6340	27
6341	2
6342	3
6343	7
6344	54
6345	6
6346	4
6347	10
6348	18
6349	7
6350	14
6351	22
6352	5
6353	6
6354	20
6355	7
6356	12
6357	4
6358	31
6359	5
6360	40
6361	54
6362	30
6363	10
6364	2
6365	76
6366	31
6367	7
6368	2
6369	8
6370	2
6371	1
6372	45
6373	7
6374	19
6375	6
6376	20
6377	7
6378	3
6379	22
6380	6
6381	35
6382	3
6383	22
6384	2
6385	19
6386	11
6387	7
6388	22
6389	11
6390	14
6391	45
6392	31
6393	18
6394	13
6395	10
6396	30
6397	19
6398	6
6399	4
6400	2
6401	8
6402	112
6403	15
6404	20
6405	12
6406	9
6407	12
6408	94
6409	10
6410	4
6411	2
6412	2
6413	19
6414	3
6415	27
6416	5
6417	12
6418	2
6419	7
6420	18
6421	10
6422	112
6423	7
6424	8
6425	3
6426	5
6427	18
6428	21
6429	4
6430	13
6431	7
6432	15
6433	4
6434	22
6435	30
6436	7
6437	7
6438	10
6439	28
6440	112
6441	2
6442	7
6443	3
6444	2
6445	31
6446	28
6447	11
6448	2
6449	3
6450	7
6451	11
6452	5
6453	31
6454	2
6455	18
6456	31
6457	2
6458	6
6459	8
6460	18
6461	31
6462	8
6463	9
6464	15
6465	2
6466	8
6467	21
6468	4
6469	112
6470	2
6471	8
6472	6
6473	7
6474	2
6475	9
6476	19
6477	4
6478	2
6479	11
6480	2
6481	17
6482	5
6483	11
6484	22
6485	4
6486	0
6487	19
6488	2
6489	2
6490	3
6491	21
6492	2
6493	112
6494	54
6495	4
6496	2
6497	2
6498	2
6499	10
6500	2
6501	14
6502	8
6503	3
6504	19
6505	7
6506	2
6507	5
6508	28
6509	3
6510	9
6511	12
6512	16
6513	21
6514	7
6515	11
6516	9
6517	19
6518	2
6519	24
6520	2
6521	7
6522	28
6523	19
6524	11
6525	3
6526	2
6527	4
6528	7
6529	10
6530	7
6531	10
6532	34
6533	14
6534	2
6535	7
6536	5
6537	112
6538	53
6539	20
6540	54
6541	2
6542	7
6543	9
6544	17
6545	24
6546	22
6547	26
6548	2
6549	2
6550	54
6551	2
6552	12
6553	9
6554	29
6555	2
6556	9
6557	112
6558	5
6559	21
6560	19
6561	2
6562	3
6563	2
6564	28
6565	112
6566	48
6567	8
6568	3
6569	22
6570	5
6571	50
6572	2
6573	9
6574	3
6575	7
6576	12
6577	18
6578	28
6579	8
6580	40
6581	22
6582	6
6583	2
6584	3
6585	2
6586	7
6587	2
6588	2
6589	7
6590	9
6591	7
6592	2
6593	12
6594	5
6595	5
6596	22
6597	4
6598	6
6599	3
6600	20
6601	3
6602	112
6603	112
6604	2
6605	0
6606	40
6607	8
6608	6
6609	17
6610	2
6611	3
6612	26
6613	8
6614	2
6615	2
6616	3
6617	2
6618	5
6619	2
6620	3
6621	6
6622	16
6623	7
6624	7
6625	18
6626	20
6627	6
6628	32
6629	54
6630	2
6631	2
6632	7
6633	8
6634	2
6635	8
6636	9
6637	14
6638	6
6639	112
6640	2
6641	28
6642	23
6643	4
6644	2
6645	17
6646	20
6647	2
6648	7
6649	10
6650	2
6651	10
6652	2
6653	6
6654	29
6655	18
6656	2
6657	54
6658	2
6659	18
6660	2
6661	3
6662	85
6663	2
6664	40
6665	9
6666	9
6667	4
6668	2
6669	2
6670	54
6671	22
6672	112
6673	28
6674	35
6675	2
6676	4
6677	2
6678	7
6679	8
6680	9
6681	2
6682	22
6683	29
6684	23
6685	9
6686	22
6687	3
6688	101
6689	20
6690	40
6691	2
6692	2
6693	2
6694	94
6695	112
6696	4
6697	6
6698	20
6699	56
6700	2
6701	1
6702	6
6703	5
6704	23
6705	8
6706	12
6707	7
6708	2
6709	19
6710	20
6711	1
6712	1
6713	8
6714	5
6715	3
6716	16
6717	10
6718	43
6719	11
6720	2
6721	2
6722	6
6723	15
6724	2
6725	7
6726	77
6727	12
6728	4
6729	5
6730	12
6731	6
6732	2
6733	30
6734	5
6735	3
6736	11
6737	22
6738	8
6739	3
6740	8
6741	3
6742	7
6743	4
6744	2
6745	2
6746	80
6747	21
6748	2
6749	2
6750	2
6751	9
6752	16
6753	32
6754	9
6755	1
6756	22
6757	3
6758	15
6759	3
6760	5
6761	11
6762	2
6763	5
6764	54
6765	20
6766	7
6767	48
6768	30
6769	31
6770	26
6771	4
6772	6
6773	5
6774	2
6775	2
6776	8
6777	9
6778	3
6779	106
6780	5
6781	5
6782	18
6783	11
6784	8
6785	20
6786	4
6787	7
6788	17
6789	9
6790	17
6791	7
6792	31
6793	2
6794	28
6795	11
6796	3
6797	2
6798	9
6799	2
6800	110
6801	2
6802	2
6803	6
6804	8
6805	2
6806	6
6807	28
6808	7
6809	31
6810	6
6811	2
6812	16
6813	8
6814	3
6815	5
6816	13
6817	13
6818	5
6819	14
6820	8
6821	12
6822	8
6823	26
6824	2
6825	3
6826	8
6827	20
6828	15
6829	2
6830	6
6831	112
6832	8
6833	18
6834	7
6835	11
6836	22
6837	11
6838	60
6839	8
6840	33
6841	15
6842	17
6843	4
6844	12
6845	11
6846	20
6847	2
6848	7
6849	6
6850	5
6851	4
6852	2
6853	2
6854	6
6855	22
6856	2
6857	19
6858	5
6859	11
6860	1
6861	2
6862	15
6863	7
6864	7
6865	11
6866	30
6867	15
6868	2
6869	3
6870	10
6871	3
6872	9
6873	2
6874	4
6875	10
6876	22
6877	10
6878	2
6879	25
6880	3
6881	112
6882	9
6883	8
6884	7
6885	4
6886	3
6887	3
6888	6
6889	7
6890	8
6891	22
6892	20
6893	7
6894	4
6895	6
6896	2
6897	6
6898	7
6899	7
6900	3
6901	10
6902	6
6903	7
6904	15
6905	15
6906	2
6907	112
6908	9
6909	9
6910	6
6911	2
6912	8
6913	22
6914	7
6915	2
6916	6
6917	12
6918	108
6919	5
6920	16
6921	1
6922	29
6923	87
6924	5
6925	8
6926	49
6927	3
6928	4
6929	2
6930	30
6931	7
6932	54
6933	10
6934	2
6935	2
6936	7
6937	29
6938	10
6939	1
6940	21
6941	2
6942	17
6943	2
6944	54
6945	5
6946	22
6947	18
6948	18
6949	2
6950	9
6951	5
6952	8
6953	2
6954	2
6955	5
6956	18
6957	16
6958	5
6959	112
6960	19
6961	5
6962	4
6963	14
6964	8
6965	10
6966	5
6967	2
6968	6
6969	7
6970	54
6971	9
6972	6
6973	8
6974	112
6975	2
6976	4
6977	13
6978	4
6979	54
6980	8
6981	12
6982	20
6983	3
6984	2
6985	21
6986	4
6987	2
6988	10
6989	8
6990	3
6991	30
6992	5
6993	108
6994	9
6995	5
6996	3
6997	3
6998	2
6999	7
7000	2
7001	2
7002	69
7003	41
7004	0
7005	5
7006	8
7007	40
7008	20
7009	3
7010	112
7011	16
7012	2
7013	54
7014	2
7015	0
7016	7
7017	25
7018	5
7019	4
7020	21
7021	3
7022	18
7023	2
7024	13
7025	16
7026	9
7027	5
7028	30
7029	4
7030	19
7031	7
7032	2
7033	8
7034	6
7035	8
7036	31
7037	51
7038	30
7039	25
7040	16
7041	7
7042	9
7043	7
7044	2
7045	11
7046	2
7047	2
7048	2
7049	83
7050	12
7051	2
7052	2
7053	2
7054	2
7055	3
7056	3
7057	7
7058	5
7059	3
7060	8
7061	29
7062	8
7063	12
7064	2
7065	6
7066	2
7067	2
7068	2
7069	112
7070	7
7071	2
7072	17
7073	2
7074	5
7075	10
7076	15
7077	2
7078	6
7079	4
7080	2
7081	6
7082	31
7083	3
7084	8
7085	8
7086	2
7087	2
7088	13
7089	27
7090	112
7091	10
7092	6
7093	1
7094	2
7095	16
7096	5
7097	18
7098	4
7099	2
7100	24
7101	7
7102	22
7103	26
7104	15
7105	16
7106	15
7107	15
7108	50
7109	10
7110	7
7111	5
7112	3
7113	0
7114	14
7115	2
7116	7
7117	19
7118	9
7119	9
7120	6
7121	5
7122	0
7123	2
7124	31
7125	11
7126	2
7127	8
7128	4
7129	2
7130	11
7131	6
7132	7
7133	3
7134	5
7135	3
7136	112
7137	2
7138	11
7139	6
7140	8
7141	18
7142	8
7143	22
7144	2
7145	15
7146	2
7147	112
7148	15
7149	2
7150	2
7151	8
7152	2
7153	11
7154	29
7155	15
7156	3
7157	49
7158	20
7159	2
7160	13
7161	54
7162	2
7163	22
7164	21
7165	2
7166	8
7167	112
7168	8
7169	3
7170	6
7171	5
7172	16
7173	1
7174	15
7175	24
7176	3
7177	8
7178	6
7179	2
7180	6
7181	19
7182	29
7183	2
7184	8
7185	16
7186	18
7187	18
7188	22
7189	4
7190	2
7191	112
7192	22
7193	15
7194	2
7195	6
7196	22
7197	30
7198	53
7199	12
7200	15
7201	1
7202	17
7203	2
7204	22
7205	7
7206	4
7207	29
7208	31
7209	19
7210	8
7211	112
7212	0
7213	31
7214	21
7215	10
7216	9
7217	8
7218	10
7219	2
7220	6
7221	8
7222	2
7223	8
7224	2
7225	31
7226	7
7227	112
7228	9
7229	53
7230	4
7231	13
7232	2
7233	5
7234	6
7235	112
7236	112
7237	6
7238	22
7239	30
7240	7
7241	0
7242	27
7243	27
7244	3
7245	21
7246	20
7247	112
7248	8
7249	22
7250	28
7251	7
7252	9
7253	2
7254	30
7255	7
7256	20
7257	10
7258	8
7259	3
7260	30
7261	4
7262	9
7263	29
7264	3
7265	27
7266	5
7267	1
7268	10
7269	100
7270	25
7271	22
7272	6
7273	6
7274	6
7275	3
7276	22
7277	5
7278	2
7279	2
7280	5
7281	7
7282	2
7283	2
7284	11
7285	7
7286	7
7287	112
7288	6
7289	9
7290	1
7291	7
7292	18
7293	8
7294	11
7295	20
7296	18
7297	101
7298	6
7299	4
7300	5
7301	5
7302	7
7303	7
7304	40
7305	112
7306	10
7307	9
7308	9
7309	8
7310	3
7311	2
7312	31
7313	2
7314	22
7315	53
7316	6
7317	19
7318	27
7319	11
7320	7
7321	18
7322	11
7323	31
7324	14
7325	1
7326	8
7327	27
7328	10
7329	4
7330	15
7331	11
7332	4
7333	14
7334	7
7335	7
7336	8
7337	3
7338	1
7339	3
7340	2
7341	15
7342	14
7343	14
7344	22
7345	1
7346	5
7347	9
7348	7
7349	5
7350	8
7351	5
7352	7
7353	5
7354	2
7355	9
7356	8
7357	22
7358	19
7359	15
7360	8
7361	2
7362	6
7363	8
7364	3
7365	6
7366	2
7367	2
7368	2
7369	7
7370	8
7371	112
7372	7
7373	13
7374	18
7375	112
7376	6
7377	30
7378	22
7379	29
7380	6
7381	7
7382	2
7383	22
7384	11
7385	106
7386	8
7387	0
7388	5
7389	14
7390	3
7391	16
7392	18
7393	8
7394	34
7395	16
7396	9
7397	7
7398	8
7399	6
7400	2
7401	2
7402	112
7403	10
7404	18
7405	1
7406	12
7407	7
7408	2
7409	7
7410	112
7411	7
7412	7
7413	25
7414	14
7415	7
7416	2
7417	7
7418	8
7419	20
7420	21
7421	52
7422	3
7423	2
7424	19
7425	2
7426	9
7427	112
7428	22
7429	6
7430	21
7431	3
7432	5
7433	2
7434	29
7435	6
7436	7
7437	2
7438	30
7439	9
7440	20
7441	112
7442	20
7443	101
7444	2
7445	7
7446	4
7447	2
7448	22
7449	7
7450	6
7451	6
7452	2
7453	8
7454	9
7455	20
7456	20
7457	112
7458	20
7459	4
7460	9
7461	7
7462	8
7463	7
7464	112
7465	26
7466	29
7467	14
7468	9
7469	3
7470	8
7471	18
7472	3
7473	16
7474	20
7475	8
7476	7
7477	2
7478	5
7479	3
7480	5
7481	5
7482	2
7483	20
7484	20
7485	4
7486	6
7487	5
7488	17
7489	2
7490	2
7491	16
7492	2
7493	7
7494	3
7495	5
7496	7
7497	22
7498	2
7499	6
7500	7
7501	2
7502	22
7503	24
7504	27
7505	3
7506	2
7507	2
7508	2
7509	8
7510	7
7511	6
7512	19
7513	0
7514	2
7515	2
7516	38
7517	22
7518	2
7519	112
7520	7
7521	18
7522	2
7523	20
7524	7
7525	7
7526	14
7527	53
7528	16
7529	27
7530	2
7531	4
7532	2
7533	20
7534	11
7535	2
7536	8
7537	10
7538	112
7539	21
7540	15
7541	8
7542	11
7543	22
7544	83
7545	2
7546	112
7547	18
7548	3
7549	15
7550	1
7551	8
7552	31
7553	1
7554	13
7555	28
7556	9
7557	5
7558	10
7559	36
7560	110
7561	6
7562	40
7563	3
7564	29
7565	12
7566	2
7567	0
7568	53
7569	29
7570	2
7571	3
7572	13
7573	11
7574	2
7575	6
7576	9
7577	11
7578	6
7579	10
7580	10
7581	9
7582	8
7583	8
7584	6
7585	16
7586	13
7587	16
7588	12
7589	5
7590	14
7591	6
7592	7
7593	7
7594	9
7595	4
7596	2
7597	17
7598	2
7599	5
7600	31
7601	4
7602	8
7603	2
7604	22
7605	22
7606	2
7607	7
7608	4
7609	7
7610	2
7611	7
7612	2
7613	50
7614	22
7615	10
7616	31
7617	3
7618	31
7619	14
7620	13
7621	18
7622	16
7623	12
7624	18
7625	2
7626	2
7627	11
7628	22
7629	9
7630	1
7631	9
7632	2
7633	10
7634	5
7635	84
7636	4
7637	17
7638	29
7639	3
7640	6
7641	8
7642	0
7643	7
7644	5
7645	10
7646	13
7647	18
7648	15
7649	7
7650	29
7651	19
7652	11
7653	8
7654	29
7655	4
7656	2
7657	8
7658	2
7659	2
7660	15
7661	2
7662	9
7663	2
7664	5
7665	4
7666	1
7667	3
7668	2
7669	2
7670	12
7671	8
7672	10
7673	28
7674	4
7675	31
7676	33
7677	7
7678	9
7679	19
7680	53
7681	7
7682	18
7683	64
7684	2
7685	9
7686	4
7687	53
7688	9
7689	22
7690	15
7691	14
7692	10
7693	3
7694	8
7695	112
7696	8
7697	7
7698	6
7699	30
7700	12
7701	7
7702	2
7703	22
7704	3
7705	8
7706	7
7707	22
7708	0
7709	22
7710	3
7711	7
7712	2
7713	4
7714	7
7715	15
7716	11
7717	112
7718	8
7719	2
7720	27
7721	7
7722	2
7723	15
7724	112
7725	45
7726	17
7727	4
7728	21
7729	13
7730	3
7731	2
7732	13
7733	7
7734	7
7735	5
7736	20
7737	7
7738	5
7739	2
7740	20
7741	15
7742	14
7743	9
7744	2
7745	2
7746	3
7747	4
7748	2
7749	2
7750	8
7751	18
7752	16
7753	2
7754	112
7755	7
7756	5
7757	8
7758	1
7759	8
7760	112
7761	6
7762	31
7763	2
7764	9
7765	11
7766	5
7767	2
7768	14
7769	4
7770	6
7771	20
7772	7
7773	18
7774	7
7775	11
7776	30
7777	13
7778	20
7779	3
7780	3
7781	13
7782	2
7783	12
7784	10
7785	3
7786	40
7787	6
7788	2
7789	20
7790	6
7791	30
7792	15
7793	7
7794	19
7795	27
7796	15
7797	14
7798	7
7799	22
7800	20
7801	2
7802	5
7803	8
7804	8
7805	13
7806	7
7807	2
7808	2
7809	112
7810	9
7811	2
7812	22
7813	2
7814	16
7815	8
7816	2
7817	18
7818	22
7819	3
7820	30
7821	2
7822	6
7823	2
7824	22
7825	7
7826	5
7827	112
7828	7
7829	19
7830	22
7831	24
7832	9
7833	53
7834	6
7835	12
7836	8
7837	2
7838	19
7839	26
7840	3
7841	29
7842	9
7843	5
7844	12
7845	6
7846	6
7847	112
7848	7
7849	2
7850	7
7851	2
7852	6
7853	78
7854	21
7855	19
7856	5
7857	101
7858	8
7859	14
7860	2
7861	3
7862	3
7863	112
7864	31
7865	112
7866	2
7867	20
7868	40
7869	11
7870	112
7871	2
7872	17
7873	8
7874	26
7875	12
7876	9
7877	30
7878	40
7879	2
7880	2
7881	31
7882	2
7883	18
7884	2
7885	2
7886	8
7887	43
7888	2
7889	4
7890	2
7891	105
7892	16
7893	53
7894	11
7895	112
7896	5
7897	11
7898	2
7899	7
7900	7
7901	10
7902	112
7903	10
7904	7
7905	19
7906	9
7907	10
7908	12
7909	2
7910	7
7911	13
7912	4
7913	25
7914	6
7915	10
7916	2
7917	2
7918	7
7919	9
7920	2
7921	2
7922	15
7923	9
7924	2
7925	4
7926	7
7927	8
7928	8
7929	2
7930	5
7931	18
7932	8
7933	4
7934	4
7935	20
7936	6
7937	5
7938	2
7939	2
7940	4
7941	2
7942	2
7943	20
7944	2
7945	17
7946	2
7947	15
7948	2
7949	101
7950	112
7951	2
7952	2
7953	2
7954	7
7955	2
7956	16
7957	3
7958	2
7959	7
7960	22
7961	12
7962	1
7963	13
7964	31
7965	63
7966	9
7967	53
7968	7
7969	6
7970	43
7971	21
7972	7
7973	3
7974	12
7975	18
7976	7
7977	7
7978	11
7979	2
7980	18
7981	7
7982	7
7983	6
7984	10
7985	3
7986	7
7987	2
7988	2
7989	11
7990	5
7991	4
7992	7
7993	16
7994	18
7995	22
7996	2
7997	2
7998	19
7999	10
8000	6
8001	10
8002	6
8003	2
8004	29
8005	3
8006	14
8007	6
8008	10
8009	24
8010	6
8011	6
8012	8
8013	3
8014	7
8015	16
8016	12
8017	4
8018	16
8019	28
8020	5
8021	18
8022	3
8023	2
8024	2
8025	9
8026	3
8027	6
8028	110
8029	10
8030	10
8031	22
8032	20
8033	0
8034	31
8035	11
8036	8
8037	7
8038	20
8039	9
8040	2
8041	2
8042	2
8043	2
8044	7
8045	2
8046	4
8047	10
8048	6
8049	7
8050	1
8051	54
8052	2
8053	8
8054	4
8055	2
8056	8
8057	2
8058	2
8059	22
8060	5
8061	6
8062	4
8063	6
8064	53
8065	4
8066	2
8067	3
8068	6
8069	10
8070	9
8071	2
8072	7
8073	2
8074	9
8075	22
8076	4
8077	2
8078	8
8079	5
8080	5
8081	2
8082	14
8083	5
8084	2
8085	4
8086	100
8087	4
8088	2
8089	5
8090	9
8091	7
8092	15
8093	0
8094	16
8095	5
8096	11
8097	20
8098	22
8099	4
8100	3
8101	9
8102	112
8103	6
8104	7
8105	8
8106	31
8107	10
8108	106
8109	6
8110	8
8111	110
8112	11
8113	2
8114	8
8115	112
8116	3
8117	8
8118	5
8119	54
8120	78
8121	5
8122	2
8123	13
8124	107
8125	2
8126	1
8127	2
8128	12
8129	8
8130	6
8131	7
8132	2
8133	2
8134	2
8135	5
8136	40
8137	3
8138	13
8139	8
8140	6
8141	4
8142	3
8143	28
8144	6
8145	9
8146	2
8147	7
8148	40
8149	9
8150	1
8151	101
8152	9
8153	9
8154	2
8155	20
8156	3
8157	2
8158	53
8159	7
8160	8
8161	8
8162	40
8163	30
8164	26
8165	3
8166	20
8167	8
8168	3
8169	1
8170	2
8171	14
8172	7
8173	2
8174	8
8175	9
8176	1
8177	6
8178	8
8179	2
8180	11
8181	101
8182	31
8183	2
8184	4
8185	2
8186	23
8187	3
8188	2
8189	2
8190	6
8191	0
8192	6
8193	3
8194	5
8195	112
8196	106
8197	2
8198	16
8199	18
8200	16
8201	5
8202	19
8203	10
8204	7
8205	8
8206	61
8207	22
8208	2
8209	4
8210	10
8211	2
8212	8
8213	4
8214	4
8215	2
8216	10
8217	2
8218	2
8219	44
8220	18
8221	7
8222	8
8223	2
8224	4
8225	2
8226	2
8227	7
8228	6
8229	11
8230	2
8231	5
8232	2
8233	2
8234	3
8235	7
8236	6
8237	12
8238	9
8239	2
8240	0
8241	3
8242	22
8243	1
8244	19
8245	13
8246	16
8247	16
8248	30
8249	22
8250	4
8251	18
8252	2
8253	2
8254	2
8255	4
8256	15
8257	22
8258	2
8259	18
8260	12
8261	54
8262	0
8263	21
8264	4
8265	3
8266	18
8267	1
8268	29
8269	5
8270	8
8271	5
8272	10
8273	6
8274	7
8275	8
8276	6
8277	12
8278	112
8279	12
8280	4
8281	5
8282	5
8283	20
8284	12
8285	6
8286	14
8287	15
8288	2
8289	16
8290	1
8291	28
8292	15
8293	20
8294	9
8295	6
8296	6
8297	10
8298	2
8299	7
8300	11
8301	30
8302	109
8303	5
8304	2
8305	7
8306	5
8307	0
8308	2
8309	22
8310	17
8311	5
8312	13
8313	29
8314	10
8315	2
8316	39
8317	9
8318	7
8319	2
8320	2
8321	4
8322	2
8323	7
8324	1
8325	112
8326	10
8327	0
8328	112
8329	6
8330	14
8331	2
8332	9
8333	14
8334	2
8335	8
8336	2
8337	12
8338	14
8339	5
8340	2
8341	16
8342	4
8343	21
8344	8
8345	7
8346	30
8347	9
8348	112
8349	3
8350	22
8351	8
8352	2
8353	7
8354	15
8355	5
8356	6
8357	18
8358	106
8359	5
8360	2
8361	20
8362	7
8363	3
8364	18
8365	4
8366	12
8367	11
8368	2
8369	2
8370	18
8371	12
8372	7
8373	2
8374	8
8375	3
8376	2
8377	4
8378	2
8379	8
8380	3
8381	2
8382	2
8383	29
8384	30
8385	2
8386	15
8387	6
8388	2
8389	6
8390	2
8391	19
8392	6
8393	2
8394	6
8395	9
8396	1
8397	20
8398	2
8399	21
8400	1
8401	11
8402	20
8403	7
8404	5
8405	3
8406	10
8407	2
8408	13
8409	4
8410	3
8411	2
8412	3
8413	2
8414	1
8415	7
8416	3
8417	6
8418	3
8419	2
8420	0
8421	6
8422	1
8423	10
8424	26
8425	2
8426	3
8427	112
8428	2
8429	10
8430	2
8431	54
8432	2
8433	23
8434	48
8435	15
8436	13
8437	9
8438	112
8439	2
8440	3
8441	22
8442	8
8443	22
8444	6
8445	10
8446	12
8447	8
8448	22
8449	2
8450	80
8451	10
8452	54
8453	9
8454	4
8455	15
8456	10
8457	7
8458	21
8459	2
8460	18
8461	5
8462	112
8463	21
8464	11
8465	11
8466	12
8467	3
8468	2
8469	54
8470	5
8471	8
8472	2
8473	2
8474	5
8475	32
8476	1
8477	2
8478	40
8479	6
8480	2
8481	40
8482	34
8483	45
8484	5
8485	1
8486	22
8487	107
8488	11
8489	5
8490	8
8491	16
8492	1
8493	6
8494	19
8495	9
8496	13
8497	2
8498	9
8499	7
8500	4
8501	2
8502	6
8503	28
8504	16
8505	112
8506	5
8507	5
8508	5
8509	5
8510	13
8511	3
8512	3
8513	1
8514	29
8515	11
8516	0
8517	10
8518	21
8519	6
8520	19
8521	6
8522	5
8523	112
8524	8
8525	108
8526	8
8527	27
8528	2
8529	18
8530	4
8531	22
8532	13
8533	3
8534	0
8535	2
8536	51
8537	71
8538	21
8539	55
8540	4
8541	14
8542	40
8543	31
8544	17
8545	6
8546	6
8547	0
8548	40
8549	15
8550	15
8551	28
8552	4
8553	9
8554	22
8555	7
8556	5
8557	5
8558	17
8559	4
8560	19
8561	28
8562	4
8563	112
8564	8
8565	2
8566	11
8567	8
8568	7
8569	16
8570	2
8571	5
8572	68
8573	2
8574	2
8575	2
8576	112
8577	2
8578	30
8579	3
8580	18
8581	4
8582	2
8583	6
8584	2
8585	22
8586	5
8587	48
8588	112
8589	2
8590	10
8591	18
8592	2
8593	7
8594	7
8595	9
8596	18
8597	2
8598	20
8599	1
8600	54
8601	15
8602	2
8603	18
8604	3
8605	6
8606	27
8607	8
8608	8
8609	2
8610	12
8611	80
8612	6
8613	8
8614	31
8615	5
8616	2
8617	6
8618	11
8619	4
8620	22
8621	40
8622	54
8623	7
8624	8
8625	2
8626	2
8627	8
8628	20
8629	2
8630	2
8631	30
8632	8
8633	27
8634	7
8635	2
8636	2
8637	2
8638	28
8639	17
8640	30
8641	2
8642	6
8643	2
8644	54
8645	3
8646	2
8647	5
8648	2
8649	2
8650	2
8651	29
8652	9
8653	2
8654	3
8655	2
8656	29
8657	5
8658	27
8659	1
8660	4
8661	19
8662	54
8663	7
8664	8
8665	1
8666	1
8667	6
8668	2
8669	15
8670	2
8671	8
8672	2
8673	30
8674	54
8675	0
8676	14
8677	8
8678	3
8679	10
8680	109
8681	112
8682	7
8683	18
8684	14
8685	74
8686	39
8687	12
8688	22
8689	6
8690	10
8691	20
8692	3
8693	2
8694	20
8695	16
8696	4
8697	2
8698	14
8699	14
8700	2
8701	8
8702	16
8703	29
8704	15
8705	7
8706	9
8707	25
8708	5
8709	8
8710	14
8711	2
8712	9
8713	20
8714	4
8715	22
8716	7
8717	0
8718	7
8719	2
8720	10
8721	31
8722	7
8723	5
8724	17
8725	2
8726	13
8727	19
8728	9
8729	2
8730	10
8731	16
8732	4
8733	18
8734	2
8735	40
8736	7
8737	2
8738	3
8739	5
8740	2
8741	3
8742	8
8743	4
8744	9
8745	8
8746	7
8747	10
8748	3
8749	13
8750	3
8751	3
8752	15
8753	8
8754	1
8755	112
8756	11
8757	31
8758	9
8759	4
8760	16
8761	1
8762	2
8763	9
8764	6
8765	9
8766	2
8767	22
8768	7
8769	5
8770	22
8771	7
8772	7
8773	6
8774	4
8775	2
8776	2
8777	6
8778	3
8779	22
8780	9
8781	10
8782	8
8783	13
8784	3
8785	112
8786	9
8787	112
8788	15
8789	2
8790	17
8791	2
8792	6
8793	10
8794	2
8795	2
8796	13
8797	16
8798	4
8799	7
8800	22
8801	2
8802	18
8803	22
8804	4
8805	7
8806	32
8807	3
8808	70
8809	31
8810	7
8811	3
8812	7
8813	9
8814	4
8815	4
8816	2
8817	7
8818	4
8819	13
8820	3
8821	8
8822	18
8823	4
8824	10
8825	3
8826	3
8827	2
8828	11
8829	15
8830	4
8831	2
8832	12
8833	22
8834	5
8835	10
8836	2
8837	4
8838	6
8839	19
8840	19
8841	15
8842	19
8843	5
8844	28
8845	4
8846	9
8847	8
8848	101
8849	6
8850	22
8851	0
8852	24
8853	20
8854	9
8855	2
8856	2
8857	112
8858	2
8859	22
8860	11
8861	8
8862	8
8863	8
8864	2
8865	7
8866	8
8867	2
8868	91
8869	2
8870	10
8871	18
8872	112
8873	40
8874	2
8875	2
8876	7
8877	22
8878	3
8879	4
8880	2
8881	10
8882	1
8883	2
8884	2
8885	9
8886	10
8887	2
8888	3
8889	7
8890	5
8891	9
8892	2
8893	2
8894	16
8895	16
8896	4
8897	5
8898	112
8899	22
8900	20
8901	9
8902	4
8903	23
8904	5
8905	2
8906	2
8907	18
8908	7
8909	7
8910	2
8911	7
8912	8
8913	2
8914	2
8915	5
8916	2
8917	8
8918	2
8919	2
8920	16
8921	16
8922	4
8923	27
8924	11
8925	54
8926	8
8927	7
8928	10
8929	7
8930	0
8931	30
8932	4
8933	5
8934	13
8935	3
8936	5
8937	2
8938	112
8939	20
8940	6
8941	18
8942	54
8943	2
8944	8
8945	2
8946	8
8947	7
8948	3
8949	3
8950	2
8951	9
8952	22
8953	7
8954	1
8955	2
8956	65
8957	10
8958	10
8959	2
8960	16
8961	8
8962	3
8963	53
8964	17
8965	112
8966	6
8967	10
8968	7
8969	18
8970	3
8971	2
8972	8
8973	2
8974	26
8975	75
8976	2
8977	9
8978	3
8979	4
8980	40
8981	2
8982	2
8983	40
8984	20
8985	2
8986	8
8987	7
8988	2
8989	13
8990	1
8991	6
8992	6
8993	10
8994	2
8995	3
8996	6
8997	4
8998	5
8999	4
9000	2
9001	28
9002	9
9003	7
9004	5
9005	112
9006	10
9007	12
9008	8
9009	10
9010	4
9011	21
9012	6
9013	2
9014	3
9015	22
9016	2
9017	2
9018	104
9019	16
9020	9
9021	5
9022	5
9023	14
9024	3
9025	79
9026	18
9027	2
9028	7
9029	108
9030	2
9031	15
9032	19
9033	10
9034	35
9035	2
9036	4
9037	22
9038	9
9039	11
9040	54
9041	2
9042	2
9043	7
9044	2
9045	2
9046	4
9047	9
9048	8
9049	2
9050	4
9051	9
9052	7
9053	7
9054	6
9055	5
9056	18
9057	4
9058	22
9059	2
9060	29
9061	6
9062	2
9063	3
9064	5
9065	2
9066	10
9067	6
9068	10
9069	6
9070	2
9071	5
9072	29
9073	2
9074	29
9075	22
9076	4
9077	10
9078	6
9079	9
9080	11
9081	8
9082	9
9083	8
9084	2
9085	2
9086	3
9087	7
9088	3
9089	18
9090	7
9091	7
9092	10
9093	1
9094	15
9095	5
9096	8
9097	5
9098	8
9099	54
9100	112
9101	2
9102	2
9103	10
9104	7
9105	2
9106	4
9107	3
9108	2
9109	1
9110	27
9111	2
9112	2
9113	2
9114	5
9115	100
9116	31
9117	4
9118	11
9119	2
9120	3
9121	2
9122	31
9123	7
9124	19
9125	2
9126	11
9127	20
9128	2
9129	10
9130	6
9131	2
9132	2
9133	2
9134	18
9135	30
9136	7
9137	12
9138	10
9139	7
9140	2
9141	7
9142	54
9143	3
9144	2
9145	2
9146	19
9147	7
9148	20
9149	8
9150	16
9151	3
9152	16
9153	11
9154	3
9155	8
9156	22
9157	112
9158	5
9159	10
9160	3
9161	9
9162	2
9163	6
9164	112
9165	7
9166	20
9167	6
9168	12
9169	5
9170	2
9171	15
9172	2
9173	7
9174	2
9175	1
9176	2
9177	4
9178	6
9179	10
9180	9
9181	8
9182	6
9183	2
9184	2
9185	18
9186	19
9187	2
9188	55
9189	8
9190	7
9191	2
9192	7
9193	13
9194	14
9195	20
9196	2
9197	24
9198	16
9199	9
9200	11
9201	4
9202	14
9203	22
9204	112
9205	106
9206	41
9207	4
9208	16
9209	8
9210	5
9211	112
9212	2
9213	9
9214	2
9215	2
9216	6
9217	54
9218	22
9219	2
9220	9
9221	8
9222	2
9223	101
9224	101
9225	7
9226	2
9227	8
9228	46
9229	7
9230	10
9231	7
9232	2
9233	2
9234	2
9235	112
9236	16
9237	2
9238	2
9239	4
9240	2
9241	4
9242	1
9243	22
9244	2
9245	2
9246	6
9247	7
9248	4
9249	1
9250	2
9251	2
9252	20
9253	7
9254	2
9255	5
9256	7
9257	6
9258	31
9259	112
9260	2
9261	10
9262	19
9263	2
9264	7
9265	2
9266	7
9267	22
9268	5
9269	13
9270	1
9271	19
9272	1
9273	2
9274	7
9275	8
9276	13
9277	2
9278	22
9279	18
9280	2
9281	18
9282	7
9283	3
9284	28
9285	7
9286	5
9287	5
9288	2
9289	3
9290	7
9291	2
9292	6
9293	101
9294	6
9295	9
9296	9
9297	11
9298	3
9299	4
9300	29
9301	2
9302	12
9303	10
9304	8
9305	8
9306	2
9307	2
9308	22
9309	2
9310	2
9311	53
9312	12
9313	2
9314	3
9315	112
9316	3
9317	4
9318	4
9319	6
9320	2
9321	2
9322	3
9323	31
9324	7
9325	22
9326	4
9327	6
9328	2
9329	51
9330	8
9331	13
9332	7
9333	22
9334	19
9335	2
9336	10
9337	16
9338	9
9339	15
9340	2
9341	112
9342	5
9343	7
9344	2
9345	30
9346	7
9347	112
9348	4
9349	3
9350	8
9351	31
9352	8
9353	112
9354	30
9355	8
9356	20
9357	2
9358	6
9359	10
9360	2
9361	8
9362	6
9363	112
9364	8
9365	7
9366	2
9367	2
9368	3
9369	29
9370	4
9371	2
9372	19
9373	5
9374	2
9375	2
9376	4
9377	13
9378	8
9379	44
9380	9
9381	2
9382	8
9383	8
9384	4
9385	16
9386	16
9387	20
9388	4
9389	28
9390	13
9391	2
9392	26
9393	112
9394	2
9395	7
9396	6
9397	2
9398	9
9399	15
9400	18
9401	2
9402	8
9403	7
9404	2
9405	2
9406	8
9407	25
9408	8
9409	2
9410	5
9411	30
9412	4
9413	7
9414	7
9415	4
