0	0
1	0
2	0
3	0
4	0
5	0
6	0
7	0
8	0
9	0
10	0
11	0
12	0
13	0
14	0
15	0
16	0
17	0
18	0
19	0
20	0
21	0
22	0
23	0
24	0
25	0
26	0
27	0
28	0
29	0
30	0
31	0
32	0
33	0
34	0
35	0
36	0
37	0
38	0
39	0
40	0
41	0
42	0
43	0
44	0
45	0
46	0
47	0
48	0
49	0
50	0
51	0
52	560
53	0
54	0
55	0
56	0
57	0
58	0
59	0
60	0
61	0
62	0
63	0
64	0
65	0
66	0
67	0
68	0
69	560
70	560
71	0
72	0
73	0
74	0
75	0
76	0
77	0
78	0
79	0
80	0
81	560
82	560
83	560
84	0
85	560
86	560
87	0
88	0
89	0
90	0
91	560
92	560
93	0
94	0
95	0
96	0
97	0
98	0
99	0
100	0
101	0
102	0
103	0
104	0
105	0
106	0
107	0
108	0
109	0
110	0
111	0
112	0
113	0
114	0
115	0
116	0
117	0
118	0
119	0
120	560
121	560
122	560
123	0
124	0
125	0
126	0
127	560
128	0
129	0
130	0
131	0
132	0
133	0
134	0
135	0
136	0
137	0
138	0
139	0
140	0
141	0
142	0
143	0
144	0
145	0
146	0
147	0
148	0
149	560
150	560
151	343
152	560
153	0
154	0
155	0
156	0
157	0
158	0
159	560
160	343
161	560
162	560
163	560
164	0
165	0
166	0
167	0
168	560
169	0
170	560
171	0
172	0
173	0
174	0
175	0
176	0
177	0
178	0
179	0
180	0
181	0
182	0
183	0
184	0
185	0
186	0
187	343
188	0
189	0
190	0
191	560
192	560
193	343
194	0
195	0
196	0
197	0
198	560
199	0
200	560
201	0
202	560
203	0
204	560
205	343
206	0
207	560
208	560
209	560
210	560
211	560
212	560
213	343
214	343
215	0
216	0
217	0
218	0
219	0
220	0
221	0
222	0
223	0
224	0
225	0
226	0
227	0
228	0
229	0
230	0
231	0
232	0
233	0
234	0
235	0
236	0
237	0
238	0
239	0
240	0
241	0
242	0
243	0
244	0
245	0
246	0
247	0
248	0
249	0
250	343
251	0
252	0
253	0
254	0
255	2
256	0
257	0
258	0
259	0
260	0
261	0
262	0
263	0
264	0
265	0
266	0
267	0
268	0
269	0
270	0
271	0
272	560
273	560
274	560
275	0
276	0
277	0
278	0
279	0
280	521
281	560
282	560
283	560
284	0
285	0
286	0
287	0
288	0
289	0
290	0
291	0
292	0
293	0
294	0
295	0
296	0
297	0
298	0
299	0
300	0
301	0
302	0
303	0
304	0
305	0
306	0
307	0
308	0
309	560
310	0
311	0
312	0
313	0
314	0
315	0
316	0
317	0
318	560
319	560
320	0
321	0
322	0
323	0
324	2
325	0
326	0
327	0
328	0
329	0
330	0
331	0
332	0
333	0
334	0
335	0
336	0
337	0
338	0
339	0
340	0
341	560
342	0
343	0
344	0
345	560
346	560
347	560
348	0
349	0
350	0
351	560
352	0
353	0
354	0
355	560
356	0
357	560
358	0
359	560
360	560
361	0
362	0
363	0
364	0
365	560
366	0
367	0
368	0
369	0
370	0
371	0
372	0
373	0
374	0
375	560
376	0
377	0
378	560
379	0
380	560
381	0
382	0
383	0
384	560
385	560
386	560
387	560
388	343
389	560
390	560
391	343
392	560
393	560
394	0
395	0
396	0
397	0
398	0
399	0
400	0
401	0
402	0
403	0
404	0
405	0
406	0
407	0
408	0
409	0
410	0
411	0
412	0
413	0
414	0
415	0
416	0
417	0
418	0
419	0
420	0
421	0
422	0
423	0
424	0
425	0
426	0
427	0
428	0
429	0
430	0
431	0
432	0
433	0
434	0
435	0
436	0
437	0
438	0
439	0
440	0
441	0
442	560
443	343
444	0
445	0
446	0
447	0
448	0
449	0
450	0
451	0
452	0
453	0
454	0
455	0
456	0
457	0
458	0
459	0
460	0
461	0
462	0
463	0
464	0
465	0
466	0
467	0
468	0
469	0
470	0
471	0
472	0
473	0
474	0
475	0
476	0
477	0
478	343
479	560
480	560
481	0
482	0
483	0
484	0
485	560
486	343
487	0
488	0
489	0
490	343
491	0
492	0
493	0
494	0
495	0
496	0
497	0
498	0
499	0
500	0
501	0
502	0
503	0
504	0
505	0
506	0
507	0
508	0
509	560
510	0
511	0
512	0
513	0
514	0
515	0
516	0
517	0
518	0
519	0
520	0
521	0
522	0
523	0
524	0
525	0
526	0
527	560
528	560
529	560
530	0
531	0
532	0
533	0
534	0
535	0
536	0
537	0
538	0
539	0
540	0
541	0
542	0
543	0
544	0
545	0
546	0
547	0
548	0
549	0
550	0
551	0
552	0
553	0
554	0
555	560
556	0
557	0
558	0
559	0
560	0
561	0
562	0
563	0
564	0
565	0
566	0
567	0
568	560
569	0
570	560
571	0
572	560
573	0
574	560
575	560
576	560
577	0
578	0
579	0
580	560
581	560
582	560
583	560
584	560
585	560
586	560
587	560
588	0
589	0
590	560
591	343
592	560
593	560
594	0
595	0
596	0
597	560
598	0
599	0
600	0
601	0
602	0
603	0
604	560
605	0
606	0
607	0
608	0
609	560
610	560
611	560
612	560
613	560
614	560
615	560
616	560
617	560
618	560
619	0
620	0
621	0
622	0
623	0
624	0
625	0
626	0
627	0
628	0
629	0
630	0
631	0
632	0
633	560
634	0
635	0
636	0
637	0
638	0
639	0
640	0
641	0
642	0
643	0
644	0
645	0
646	0
647	0
648	0
649	0
650	0
651	0
652	0
653	0
654	0
655	0
656	0
657	0
658	0
659	0
660	0
661	0
662	0
663	0
664	0
665	0
666	0
667	0
668	0
669	0
670	0
671	0
672	0
673	0
674	0
675	0
676	0
677	0
678	0
679	0
680	0
681	560
682	560
683	560
684	560
685	0
686	0
687	560
688	560
689	560
690	0
691	560
692	560
693	0
694	0
695	0
696	0
697	0
698	560
699	0
700	0
701	0
702	0
703	0
704	0
705	0
706	0
707	0
708	0
709	0
710	0
711	0
712	0
713	0
714	0
715	0
716	0
717	0
718	0
719	0
720	0
721	0
722	0
723	0
724	0
725	0
726	560
727	0
728	0
729	0
730	0
731	0
732	0
733	0
734	0
735	0
736	0
737	343
738	560
739	0
740	0
741	560
742	0
743	0
744	0
745	0
746	0
747	0
748	0
749	0
750	0
751	0
752	560
753	560
754	560
755	0
756	0
757	0
758	343
759	0
760	560
761	0
762	0
763	560
764	0
765	0
766	0
767	0
768	0
769	0
770	0
771	0
772	0
773	0
774	0
775	0
776	0
777	0
778	0
779	0
780	0
781	560
782	560
783	0
784	0
785	0
786	0
787	0
788	560
789	560
790	560
791	560
792	560
793	0
794	0
795	0
796	560
797	560
798	560
799	0
800	0
801	0
802	560
803	560
804	560
805	560
806	560
807	560
808	560
809	560
810	560
811	0
812	0
813	0
814	0
815	0
816	0
817	0
818	0
819	0
820	0
821	0
822	0
823	0
824	0
825	0
826	0
827	0
828	0
829	0
830	0
831	0
832	0
833	0
834	0
835	0
836	0
837	0
838	0
839	0
840	0
841	0
842	0
843	0
844	0
845	0
846	0
847	0
848	0
849	0
850	0
851	0
852	0
853	0
854	0
855	0
856	0
857	0
858	0
859	0
860	0
861	0
862	0
863	0
864	0
865	0
866	0
867	0
868	0
869	0
870	0
871	0
872	0
873	0
874	0
875	560
876	560
877	560
878	343
879	560
880	560
881	0
882	0
883	0
884	0
885	0
886	0
887	0
888	0
889	0
890	0
891	0
892	0
893	0
894	0
895	0
896	560
897	560
898	343
899	0
900	0
901	0
902	0
903	0
904	0
905	0
906	0
907	0
908	0
909	0
910	343
911	0
912	0
913	0
914	560
915	343
916	0
917	0
918	560
919	560
920	560
921	560
922	0
923	0
924	0
925	0
926	0
927	0
928	0
929	0
930	0
931	0
932	0
933	0
934	0
935	0
936	0
937	343
938	0
939	343
940	560
941	560
942	0
943	0
944	0
945	0
946	0
947	0
948	0
949	0
950	0
951	0
952	0
953	0
954	0
955	0
956	0
957	0
958	560
959	560
960	560
961	343
962	343
963	560
964	560
965	560
966	560
967	560
968	560
969	560
970	560
971	560
972	560
973	0
974	0
975	0
976	0
977	0
978	0
979	0
980	0
981	0
982	0
983	0
984	0
985	0
986	0
987	0
988	0
989	0
990	0
991	0
992	0
993	0
994	0
995	0
996	0
997	0
998	0
999	0
1000	0
1001	0
1002	0
1003	0
1004	0
1005	0
1006	0
1007	0
1008	0
1009	0
1010	0
1011	0
1012	0
1013	0
1014	0
1015	0
1016	0
1017	0
1018	0
1019	0
1020	0
1021	0
1022	0
1023	0
1024	0
1025	0
1026	0
1027	0
1028	0
1029	0
1030	0
1031	0
1032	0
1033	0
1034	0
1035	0
1036	0
1037	0
1038	0
1039	0
1040	0
1041	0
1042	0
1043	0
1044	0
1045	0
1046	0
1047	0
1048	560
1049	0
1050	0
1051	560
1052	0
1053	0
1054	0
1055	0
1056	0
1057	560
1058	0
1059	0
1060	0
1061	0
1062	0
1063	560
1064	560
1065	560
1066	560
1067	0
1068	0
1069	343
1070	560
1071	0
1072	0
1073	0
1074	0
1075	0
1076	0
1077	0
1078	0
1079	0
1080	0
1081	0
1082	0
1083	0
1084	0
1085	0
1086	0
1087	0
1088	0
1089	0
1090	0
1091	0
1092	0
1093	0
1094	0
1095	0
1096	0
1097	0
1098	0
1099	0
1100	560
1101	0
1102	0
1103	0
1104	0
1105	560
1106	560
1107	0
1108	0
1109	560
1110	0
1111	0
1112	0
1113	0
1114	0
1115	0
1116	0
1117	0
1118	0
1119	0
1120	0
1121	0
1122	560
1123	0
1124	0
1125	0
1126	0
1127	0
1128	0
1129	0
1130	0
1131	0
1132	0
1133	0
1134	0
1135	0
1136	560
1137	0
1138	0
1139	343
1140	560
1141	0
1142	0
1143	0
1144	0
1145	343
1146	0
1147	560
1148	0
1149	0
1150	560
1151	0
1152	0
1153	0
1154	0
1155	0
1156	0
1157	560
1158	0
1159	0
1160	0
1161	560
1162	0
1163	0
1164	0
1165	560
1166	0
1167	0
1168	0
1169	0
1170	0
1171	343
1172	560
1173	0
1174	0
1175	0
1176	0
1177	0
1178	0
1179	0
1180	0
1181	0
1182	0
1183	0
1184	0
1185	0
1186	0
1187	0
1188	0
1189	0
1190	0
1191	0
1192	0
1193	0
1194	0
1195	0
1196	0
1197	0
1198	0
1199	0
1200	0
1201	0
1202	0
1203	0
1204	0
1205	0
1206	0
1207	0
1208	560
1209	0
1210	0
1211	0
1212	560
1213	0
1214	0
1215	0
1216	0
1217	0
1218	0
1219	0
1220	0
1221	0
1222	0
1223	560
1224	0
1225	0
1226	0
1227	560
1228	560
1229	560
1230	560
1231	493
1232	560
1233	560
1234	0
1235	0
1236	560
1237	560
1238	560
1239	560
1240	0
1241	0
1242	0
1243	0
1244	0
1245	0
1246	0
1247	0
1248	0
1249	0
1250	0
1251	0
1252	0
1253	0
1254	0
1255	560
1256	0
1257	0
1258	0
1259	0
1260	0
1261	0
1262	0
1263	0
1264	0
1265	0
1266	0
1267	0
1268	0
1269	0
1270	0
1271	0
1272	0
1273	0
1274	0
1275	0
1276	0
1277	0
1278	0
1279	0
1280	0
1281	0
1282	0
1283	0
1284	0
1285	0
1286	0
1287	0
1288	0
1289	0
1290	0
1291	0
1292	0
1293	0
1294	560
1295	0
1296	0
1297	0
1298	0
1299	0
1300	0
1301	0
1302	560
1303	0
1304	0
1305	0
1306	560
1307	560
1308	343
1309	0
1310	560
1311	0
1312	0
1313	0
1314	0
1315	343
1316	560
1317	0
1318	0
1319	0
1320	0
1321	560
1322	0
1323	560
1324	560
1325	560
1326	0
1327	0
1328	0
1329	560
1330	560
1331	343
1332	0
1333	0
1334	0
1335	0
1336	0
1337	0
1338	560
1339	0
1340	0
1341	0
1342	0
1343	0
1344	0
1345	0
1346	0
1347	0
1348	0
1349	0
1350	0
1351	0
1352	0
1353	0
1354	0
1355	0
1356	0
1357	0
1358	0
1359	0
1360	0
1361	0
1362	0
1363	0
1364	0
1365	0
1366	0
1367	560
1368	0
1369	0
1370	0
1371	0
1372	560
1373	560
1374	560
1375	343
1376	560
1377	343
1378	560
1379	0
1380	0
1381	0
1382	0
1383	0
1384	0
1385	0
1386	0
1387	0
1388	0
1389	0
1390	0
1391	0
1392	0
1393	0
1394	0
1395	0
1396	0
1397	0
1398	0
1399	0
1400	0
1401	0
1402	0
1403	0
1404	0
1405	0
1406	0
1407	0
1408	0
1409	343
1410	0
1411	0
1412	0
1413	560
1414	0
1415	0
1416	0
1417	0
1418	0
1419	0
1420	0
1421	0
1422	0
1423	0
1424	343
1425	0
1426	0
1427	0
1428	0
1429	0
1430	0
1431	0
1432	0
1433	0
1434	0
1435	0
1436	0
1437	0
1438	0
1439	0
1440	560
1441	560
1442	0
1443	0
1444	560
1445	560
1446	560
1447	560
1448	560
1449	560
1450	560
1451	560
1452	0
1453	0
1454	0
1455	0
1456	0
1457	0
1458	0
1459	560
1460	560
1461	560
1462	560
1463	560
1464	0
1465	0
1466	0
1467	0
1468	0
1469	0
1470	0
1471	0
1472	0
1473	0
1474	0
1475	0
1476	0
1477	560
1478	0
1479	0
1480	0
1481	0
1482	0
1483	0
1484	0
1485	0
1486	0
1487	0
1488	0
1489	0
1490	560
1491	0
1492	0
1493	0
1494	0
1495	0
1496	0
1497	0
1498	0
1499	0
1500	0
1501	0
1502	0
1503	0
1504	0
1505	0
1506	0
1507	0
1508	0
1509	0
1510	0
1511	0
1512	560
1513	0
1514	0
1515	0
1516	560
1517	343
1518	0
1519	0
1520	0
1521	0
1522	560
1523	0
1524	0
1525	0
1526	0
1527	0
1528	0
1529	0
1530	0
1531	0
1532	0
1533	0
1534	560
1535	0
1536	0
1537	0
1538	0
1539	0
1540	0
1541	343
1542	560
1543	343
1544	0
1545	0
1546	0
1547	0
1548	0
1549	0
1550	560
1551	0
1552	0
1553	0
1554	0
1555	0
1556	0
1557	560
1558	560
1559	560
1560	0
1561	0
1562	0
1563	0
1564	0
1565	0
1566	0
1567	0
1568	0
1569	0
1570	560
1571	560
1572	560
1573	560
1574	560
1575	343
1576	560
1577	560
1578	343
1579	560
1580	560
1581	560
1582	0
1583	0
1584	0
1585	0
1586	0
1587	0
1588	0
1589	0
1590	0
1591	0
1592	0
1593	0
1594	0
1595	0
1596	0
1597	0
1598	0
1599	0
1600	0
1601	0
1602	0
1603	0
1604	0
1605	0
1606	0
1607	0
1608	0
1609	0
1610	0
1611	0
1612	0
1613	0
1614	0
1615	0
1616	0
1617	0
1618	0
1619	0
1620	0
1621	0
1622	0
1623	0
1624	0
1625	560
1626	0
1627	0
1628	0
1629	560
1630	0
1631	0
1632	0
1633	0
1634	0
1635	0
1636	0
1637	0
1638	560
1639	560
1640	560
1641	560
1642	560
1643	343
1644	0
1645	0
1646	0
1647	0
1648	0
1649	0
1650	0
1651	560
1652	0
1653	0
1654	343
1655	0
1656	0
1657	0
1658	0
1659	0
1660	0
1661	0
1662	560
1663	0
1664	0
1665	0
1666	0
1667	0
1668	560
1669	560
1670	560
1671	560
1672	560
1673	0
1674	0
1675	0
1676	560
1677	560
1678	560
1679	560
1680	343
1681	0
1682	0
1683	0
1684	0
1685	0
1686	0
1687	0
1688	0
1689	343
1690	0
1691	0
1692	0
1693	0
1694	560
1695	0
1696	0
1697	560
1698	560
1699	560
1700	560
1701	0
1702	343
1703	0
1704	0
1705	0
1706	0
1707	0
1708	0
1709	560
1710	560
1711	560
1712	560
1713	343
1714	560
1715	0
1716	0
1717	0
1718	0
1719	0
1720	0
1721	0
1722	0
1723	0
1724	0
1725	0
1726	0
1727	0
1728	0
1729	0
1730	0
1731	0
1732	0
1733	0
1734	0
1735	0
1736	0
1737	0
1738	0
1739	0
1740	0
1741	0
1742	0
1743	0
1744	0
1745	0
1746	0
1747	0
1748	0
1749	0
1750	0
1751	0
1752	0
1753	0
1754	0
1755	0
1756	0
1757	0
1758	0
1759	0
1760	0
1761	0
1762	0
1763	0
1764	0
1765	0
1766	0
1767	0
1768	0
1769	0
1770	0
1771	343
1772	0
1773	0
1774	0
1775	0
1776	0
1777	0
1778	0
1779	343
1780	0
1781	0
1782	0
1783	0
1784	0
1785	0
1786	0
1787	0
1788	0
1789	0
1790	0
1791	0
1792	0
1793	0
1794	0
1795	343
1796	560
1797	0
1798	0
1799	0
1800	560
1801	0
1802	560
1803	560
1804	560
1805	343
1806	0
1807	560
1808	560
1809	560
1810	0
1811	0
1812	0
1813	0
1814	0
1815	0
1816	0
1817	0
1818	0
1819	0
1820	0
1821	0
1822	0
1823	0
1824	0
1825	0
1826	560
1827	560
1828	560
1829	0
1830	560
1831	560
1832	343
1833	560
1834	0
1835	560
1836	560
1837	0
1838	560
1839	0
1840	0
1841	0
1842	0
1843	0
1844	0
1845	0
1846	0
1847	0
1848	0
1849	0
1850	0
1851	560
1852	560
1853	560
1854	560
1855	560
1856	560
1857	0
1858	0
1859	0
1860	0
1861	560
1862	0
1863	0
1864	0
1865	0
1866	0
1867	0
1868	343
1869	560
1870	0
1871	0
1872	0
1873	560
1874	560
1875	0
1876	0
1877	0
1878	0
1879	0
1880	560
1881	560
1882	0
1883	0
1884	0
1885	0
1886	0
1887	0
1888	0
1889	0
1890	343
1891	343
1892	560
1893	560
1894	560
1895	560
1896	560
1897	560
1898	560
1899	560
1900	560
1901	560
1902	560
1903	0
1904	0
1905	0
1906	0
1907	0
1908	0
1909	0
1910	0
1911	0
1912	0
1913	0
1914	0
1915	0
1916	0
1917	0
1918	0
1919	0
1920	0
1921	0
1922	0
1923	0
1924	0
1925	0
1926	0
1927	560
1928	0
1929	0
1930	0
1931	0
1932	0
1933	0
1934	0
1935	0
1936	0
1937	0
1938	0
1939	0
1940	560
1941	0
1942	0
1943	0
1944	0
1945	0
1946	0
1947	0
1948	0
1949	0
1950	0
1951	0
1952	0
1953	0
1954	0
1955	0
1956	0
1957	0
1958	0
1959	0
1960	0
1961	0
1962	0
1963	0
1964	0
1965	0
1966	0
1967	0
1968	0
1969	0
1970	0
1971	0
1972	560
1973	560
1974	538
1975	560
1976	560
1977	0
1978	0
1979	0
1980	0
1981	560
1982	560
1983	560
1984	560
1985	560
1986	560
1987	0
1988	0
1989	0
1990	0
1991	0
1992	0
1993	0
1994	0
1995	0
1996	0
1997	0
1998	0
1999	560
2000	0
2001	0
2002	0
2003	0
2004	560
2005	560
2006	560
2007	560
2008	0
2009	0
2010	560
2011	560
2012	0
2013	560
2014	560
2015	0
2016	0
2017	0
2018	0
2019	0
2020	0
2021	0
2022	0
2023	0
2024	343
2025	560
2026	0
2027	560
2028	0
2029	0
2030	0
2031	0
2032	0
2033	0
2034	0
2035	0
2036	0
2037	0
2038	560
2039	343
2040	0
2041	0
2042	0
2043	0
2044	0
2045	0
2046	0
2047	0
2048	2
2049	0
2050	560
2051	343
2052	0
2053	0
2054	0
2055	0
2056	0
2057	0
2058	0
2059	0
2060	0
2061	0
2062	0
2063	560
2064	560
2065	0
2066	0
2067	0
2068	0
2069	0
2070	0
2071	0
2072	0
2073	0
2074	0
2075	0
2076	0
2077	0
2078	0
2079	0
2080	0
2081	0
2082	0
2083	0
2084	0
2085	0
2086	0
2087	0
2088	0
2089	0
2090	0
2091	0
2092	0
2093	0
2094	560
2095	343
2096	560
2097	560
2098	343
2099	560
2100	343
2101	558
2102	560
2103	560
2104	343
2105	560
2106	560
2107	560
2108	560
2109	560
2110	0
2111	0
2112	0
2113	0
2114	0
2115	0
2116	0
2117	0
2118	0
2119	0
2120	0
2121	0
2122	0
2123	0
2124	0
2125	0
2126	0
2127	0
2128	0
2129	0
2130	0
2131	0
2132	0
2133	0
2134	0
2135	0
2136	0
2137	0
2138	0
2139	0
2140	343
2141	0
2142	0
2143	343
2144	0
2145	0
2146	0
2147	560
2148	0
2149	0
2150	0
2151	0
2152	0
2153	0
2154	0
2155	0
2156	0
2157	0
2158	0
2159	0
2160	0
2161	0
2162	0
2163	0
2164	0
2165	560
2166	0
2167	0
2168	0
2169	0
2170	0
2171	0
2172	0
2173	0
2174	0
2175	0
2176	0
2177	560
2178	560
2179	560
2180	560
2181	560
2182	560
2183	560
2184	560
2185	343
2186	560
2187	560
2188	560
2189	560
2190	560
2191	560
2192	560
2193	560
2194	0
2195	0
2196	0
2197	0
2198	0
2199	0
2200	0
2201	0
2202	0
2203	0
2204	0
2205	0
2206	0
2207	0
2208	0
2209	0
2210	0
2211	0
2212	0
2213	0
2214	0
2215	0
2216	0
2217	0
2218	0
2219	0
2220	0
2221	0
2222	0
2223	0
2224	343
2225	0
2226	0
2227	0
2228	560
2229	343
2230	0
2231	0
2232	0
2233	0
2234	0
2235	0
2236	0
2237	0
2238	0
2239	0
2240	0
2241	0
2242	0
2243	0
2244	0
2245	0
2246	0
2247	0
2248	0
2249	0
2250	0
2251	0
2252	0
2253	0
2254	560
2255	560
2256	0
2257	0
2258	343
2259	0
2260	560
2261	560
2262	560
2263	560
2264	0
2265	0
2266	0
2267	0
2268	343
2269	0
2270	0
2271	0
2272	0
2273	0
2274	0
2275	0
2276	560
2277	0
2278	0
2279	0
2280	560
2281	0
2282	0
2283	560
2284	560
2285	0
2286	560
2287	0
2288	560
2289	560
2290	0
2291	0
2292	0
2293	0
2294	0
2295	0
2296	0
2297	0
2298	0
2299	0
2300	0
2301	0
2302	0
2303	0
2304	0
2305	0
2306	0
2307	0
2308	0
2309	0
2310	0
2311	0
2312	0
2313	0
2314	0
2315	0
2316	0
2317	0
2318	0
2319	0
2320	0
2321	343
2322	560
2323	343
2324	343
2325	560
2326	560
2327	560
2328	560
2329	560
2330	560
2331	560
2332	560
2333	560
2334	560
2335	343
2336	560
2337	343
2338	0
2339	0
2340	0
2341	0
2342	0
2343	0
2344	0
2345	0
2346	0
2347	0
2348	0
2349	0
2350	0
2351	0
2352	0
2353	0
2354	0
2355	0
2356	0
2357	0
2358	0
2359	0
2360	0
2361	0
2362	0
2363	0
2364	0
2365	0
2366	0
2367	0
2368	0
2369	0
2370	0
2371	0
2372	0
2373	0
2374	560
2375	0
2376	0
2377	0
2378	0
2379	0
2380	0
2381	0
2382	0
2383	0
2384	0
2385	0
2386	0
2387	343
2388	0
2389	0
2390	0
2391	0
2392	0
2393	0
2394	560
2395	560
2396	0
2397	0
2398	0
2399	0
2400	0
2401	0
2402	0
2403	0
2404	560
2405	560
2406	0
2407	560
2408	560
2409	0
2410	560
2411	0
2412	0
2413	0
2414	0
2415	0
2416	0
2417	560
2418	0
2419	0
2420	0
2421	0
2422	0
2423	0
2424	0
2425	0
2426	560
2427	0
2428	0
2429	0
2430	0
2431	0
2432	0
2433	0
2434	0
2435	0
2436	0
2437	0
2438	0
2439	0
2440	0
2441	0
2442	0
2443	0
2444	0
2445	0
2446	0
2447	0
2448	0
2449	0
2450	0
2451	560
2452	0
2453	0
2454	0
2455	0
2456	0
2457	0
2458	0
2459	0
2460	0
2461	0
2462	0
2463	0
2464	0
2465	560
2466	0
2467	0
2468	0
2469	0
2470	560
2471	560
2472	0
2473	0
2474	0
2475	560
2476	560
2477	0
2478	0
2479	0
2480	0
2481	0
2482	0
2483	0
2484	560
2485	560
2486	0
2487	0
2488	0
2489	0
2490	0
2491	0
2492	0
2493	0
2494	0
2495	0
2496	0
2497	0
2498	0
2499	0
2500	0
2501	0
2502	0
2503	0
2504	0
2505	0
2506	0
2507	0
2508	0
2509	0
2510	0
2511	560
2512	560
2513	0
2514	0
2515	0
2516	0
2517	0
2518	560
2519	560
2520	560
2521	0
2522	0
2523	0
2524	560
2525	0
2526	0
2527	0
2528	0
2529	0
2530	0
2531	0
2532	0
2533	0
2534	0
2535	0
2536	0
2537	0
2538	0
2539	0
2540	0
2541	0
2542	0
2543	0
2544	343
2545	0
2546	0
2547	0
2548	0
2549	0
2550	0
2551	0
2552	0
2553	0
2554	0
2555	0
2556	0
2557	0
2558	0
2559	0
2560	560
2561	560
2562	560
2563	560
2564	560
2565	560
2566	560
2567	560
2568	560
2569	560
2570	560
2571	560
2572	560
2573	560
2574	560
2575	0
2576	0
2577	0
2578	0
2579	0
2580	0
2581	0
2582	0
2583	0
2584	0
2585	0
2586	0
2587	0
2588	0
2589	0
2590	0
2591	0
2592	0
2593	0
2594	0
2595	0
2596	0
2597	0
2598	0
2599	0
2600	0
2601	0
2602	0
2603	0
2604	0
2605	0
2606	0
2607	0
2608	0
2609	0
2610	0
2611	0
2612	0
2613	0
2614	0
2615	0
2616	0
2617	0
2618	0
2619	0
2620	0
2621	0
2622	0
2623	0
2624	0
2625	0
2626	0
2627	0
2628	0
2629	560
2630	0
2631	0
2632	0
2633	0
2634	0
2635	0
2636	0
2637	0
2638	0
2639	0
2640	0
2641	0
2642	0
2643	0
2644	0
2645	560
2646	560
2647	560
2648	560
2649	560
2650	560
2651	0
2652	0
2653	0
2654	560
2655	0
2656	0
2657	0
2658	0
2659	0
2660	0
2661	0
2662	0
2663	0
2664	0
2665	0
2666	0
2667	0
2668	0
2669	0
2670	0
2671	0
2672	0
2673	0
2674	0
2675	0
2676	0
2677	0
2678	0
2679	0
2680	0
2681	0
2682	0
2683	0
2684	0
2685	0
2686	0
2687	0
2688	0
2689	0
2690	0
2691	0
2692	0
2693	0
2694	560
2695	343
2696	0
2697	0
2698	0
2699	0
2700	0
2701	0
2702	0
2703	0
2704	560
2705	0
2706	0
2707	0
2708	0
2709	0
2710	560
2711	0
2712	0
2713	0
2714	0
2715	0
2716	0
2717	0
2718	0
2719	0
2720	0
2721	0
2722	0
2723	0
2724	0
2725	0
2726	0
2727	0
2728	0
2729	0
2730	0
2731	0
2732	0
2733	0
2734	0
2735	0
2736	0
2737	0
2738	0
2739	0
2740	0
2741	560
2742	0
2743	0
2744	560
2745	560
2746	560
2747	0
2748	0
2749	0
2750	0
2751	560
2752	560
2753	0
2754	0
2755	0
2756	560
2757	560
2758	0
2759	560
2760	0
2761	560
2762	560
2763	0
2764	560
2765	560
2766	560
2767	560
2768	0
2769	0
2770	0
2771	0
2772	560
2773	0
2774	0
2775	0
2776	0
2777	0
2778	560
2779	0
2780	0
2781	0
2782	0
2783	560
2784	0
2785	0
2786	0
2787	0
2788	560
2789	560
2790	560
2791	560
2792	343
2793	343
2794	560
2795	560
2796	0
2797	0
2798	0
2799	0
2800	0
2801	0
2802	0
2803	0
2804	0
2805	0
2806	0
2807	0
2808	0
2809	0
2810	0
2811	0
2812	0
2813	0
2814	0
2815	0
2816	0
2817	0
2818	0
2819	0
2820	0
2821	0
2822	0
2823	0
2824	0
2825	0
2826	0
2827	0
2828	0
2829	0
2830	0
2831	0
2832	0
2833	0
2834	0
2835	0
2836	0
2837	0
2838	560
2839	0
2840	0
2841	0
2842	0
2843	0
2844	0
2845	0
2846	0
2847	0
2848	0
2849	0
2850	0
2851	0
2852	560
2853	0
2854	0
2855	560
2856	560
2857	560
2858	0
2859	0
2860	343
2861	560
2862	560
2863	560
2864	0
2865	0
2866	0
2867	0
2868	560
2869	0
2870	560
2871	0
2872	0
2873	0
2874	0
2875	0
2876	0
2877	560
2878	0
2879	0
2880	0
2881	0
2882	0
2883	0
2884	0
2885	0
2886	0
2887	0
2888	560
2889	0
2890	0
2891	0
2892	560
2893	0
2894	0
2895	0
2896	2
2897	0
2898	0
2899	0
2900	0
2901	0
2902	0
2903	0
2904	0
2905	560
2906	0
2907	560
2908	560
2909	560
2910	343
2911	560
2912	560
2913	0
2914	560
2915	0
2916	0
2917	0
2918	0
2919	0
2920	0
2921	0
2922	0
2923	560
2924	0
2925	560
2926	560
2927	560
2928	560
2929	560
2930	0
2931	560
2932	560
2933	560
2934	560
2935	0
2936	0
2937	0
2938	560
2939	560
2940	560
2941	560
2942	560
2943	0
2944	0
2945	0
2946	0
2947	0
2948	0
2949	0
2950	0
2951	0
2952	0
2953	0
2954	0
2955	0
2956	0
2957	0
2958	0
2959	0
2960	0
2961	0
2962	0
2963	560
2964	0
2965	0
2966	560
2967	0
2968	0
2969	0
2970	0
2971	0
2972	0
2973	0
2974	0
2975	0
2976	0
2977	0
2978	0
2979	0
2980	0
2981	0
2982	0
2983	0
2984	343
2985	560
2986	560
2987	560
2988	560
2989	560
2990	560
2991	343
2992	560
2993	560
2994	560
2995	560
2996	560
2997	560
2998	0
2999	0
3000	0
3001	0
3002	0
3003	0
3004	0
3005	0
3006	0
3007	0
3008	0
3009	0
3010	0
3011	0
3012	0
3013	0
3014	0
3015	0
3016	0
3017	0
3018	0
3019	0
3020	0
3021	0
3022	0
3023	0
3024	0
3025	0
3026	0
3027	0
3028	0
3029	0
3030	0
3031	0
3032	0
3033	0
3034	0
3035	0
3036	0
3037	0
3038	0
3039	0
3040	0
3041	2
3042	0
3043	0
3044	0
3045	0
3046	0
3047	0
3048	0
3049	0
3050	0
3051	0
3052	0
3053	0
3054	0
3055	0
3056	0
3057	0
3058	0
3059	0
3060	0
3061	0
3062	0
3063	0
3064	0
3065	0
3066	0
3067	0
3068	0
3069	0
3070	0
3071	560
3072	0
3073	0
3074	343
3075	560
3076	560
3077	560
3078	0
3079	0
3080	0
3081	0
3082	0
3083	0
3084	560
3085	0
3086	0
3087	0
3088	0
3089	0
3090	0
3091	0
3092	0
3093	0
3094	0
3095	0
3096	0
3097	0
3098	0
3099	0
3100	0
3101	0
3102	0
3103	0
3104	560
3105	0
3106	0
3107	0
3108	560
3109	0
3110	0
3111	0
3112	0
3113	560
3114	0
3115	0
3116	0
3117	0
3118	0
3119	0
3120	0
3121	0
3122	560
3123	0
3124	0
3125	560
3126	560
3127	0
3128	560
3129	560
3130	560
3131	0
3132	0
3133	0
3134	0
3135	0
3136	0
3137	0
3138	0
3139	0
3140	0
3141	560
3142	560
3143	343
3144	560
3145	560
3146	560
3147	560
3148	560
3149	560
3150	560
3151	560
3152	560
3153	560
3154	560
3155	560
3156	560
3157	343
